[
  {
    "count": 652,
    "next": "app/assets/database/268-285.json",
    "previous": "app/assets/database/211-247.json",
    "lyrics": [
      {
        "current": "app/assets/database/211-247.json",
        "number": 248,
        "author": "",
        "year": "",
        "title": "REFLEXIÓN: El Espíritu Santo, mi Consolador",
        "verse": "",
        "lyric": "<div class='strophe'> <p>Espíritu de Dios, ¡cuán maravilloso eres!Desde la eternidad existes con el Padre y el Hijo,con quienes creaste el mundo.</p></div><div class='strophe'> <p>Es por obra tuya también que yo soy unanueva creación. Tú me convenciste de mi pecadoy me llevaste a la fe en Cristo. Me diste nuevavida e hiciste tu morada en mí. Eres el sello quegarantiza mi redención final.</p></div><div class='strophe'> <p>Hoy eres mi Guía y Consolador. Me ayudasa entender la Biblia, la que tú mismo inspiraste.</p></div><div class='strophe'> <p>Te entristeces por mi desobediencia; señalas miserrores y me impulsas a confesarlos. Me das poderpara vencer la tentación y el pecado.</p></div><div class='strophe'> <p>Cultivas en el huerto de mi vida el frutoque te agrada. Utilizas para beneficio de tuiglesia las habilidades con las cualesme has capacitado.</p></div><div class='strophe'> <p>¡Qué privilegio es tenerte como mi Ayudador!Cuando me someto a tu control, mi corazón rebosacon melodías de alabanza y gratitud a Dios.</p></div>"
      },
      {
        "current": "app/assets/database/211-247.json",
        "number": 249,
        "author": "Felipe Blycker J.",
        "year": "1977",
        "title": "Himno al Espíritu Santo",
        "verse": "Y vio al Espíritu de Dios que descendía como paloma. Mateo 3:16",
        "lyric": "<div class='strophe'> <span class='strophe__number'>1</span> <p>Santo Espíritu, excelsa paloma,</p><p>inmutable ser del trino Dios,</p><p>Mensajero de paz que procedes del Padre,</p><p>hoy consuélanos con suave voz.</p><p>Tu fragancia y llenura anhelamos;</p><p>embalsama tu templo, tu altar;</p><p>Y la sombra feliz de tus alas de gracia</p><p>Nos cobije, ¡oh Amigo sin par!</p></div><div class='strophe'> <span class='strophe__number'>2</span> <p>Santo Espíritu, fuego celeste,</p><p>en el día de Pentecostés</p><p>Cual la nube de gloria, bajaste a la Iglesia</p><p>como al templo de Sion otra vez.</p><p>Para el nuevo cristiano eres sello;</p><p>cada uno de ti tiene un don;</p><p>Todo hijo de Dios elegido es y goza</p><p>ya las arras de tu salvación.</p></div><div class='strophe'> <span class='strophe__number'>3</span> <p>Santo Espíritu, aceite bendito,</p><p>cual producto del verde olivar,</p><p>Luminaria y calor en la tienda sagrada</p><p>Donde Aarón se acercaba a adorar;</p><p>Agua viva y regeneradora,</p><p>santifícanos contra el mal; somos uno en Jesús</p><p>los creyentes del mundo por tu santa labor bautismal.</p></div><div class='strophe'> <span class='strophe__number'>4</span> <p>Santo Espíritu, viento potente,</p><p>fuente y fuerza de paz y amor,</p><p>Paracleto veraz que consuelo nos brinda</p><p>Y aboga a nuestro favor;</p><p>Sénos luz que ilumine la Biblia,</p><p>nuestros pies dirigiendo al andar;</p><p>Hoy rendimos a ti</p><p>nuestras almas ansiosas;</p><p>Sólo ungidos podremos triunfar. Amén</p></div>"
      },
      {
        "current": "app/assets/database/211-247.json",
        "number": 250,
        "author": "",
        "year": "",
        "title": "El divino Consolador",
        "verse": "Juan 14:16-17, 26a; 15:26; Romanos 8:11; 2 Corintios 3:17-18 (RVR)",
        "lyric": "<div class='strophe'> <p>Yo rogaré al Padre, y os dará otro Consolador, para que esté con vosotros para siempre:</p></div><div class='strophe'> <p>El Espíritu de verdad, al cual el mundo no puede recibir, porque no le ve, ni le conoce;</p></div><div class='strophe'> <p>Pero vosotros le conocéis, porque mora con vosotros, y estará en vosotros.</p></div><div class='strophe'> <p>Mas el Consolador, el Espíritu Santo, a quienel Padre enviará en mi nombre, él os enseñarátodas las cosas.</p></div><div class='strophe'> <p>Cuando venga el Consolador, a quien yo os enviaré del Padre, el Espíritu de verdad, el cual procede del Padre, él dará testimonio acerca de mí.</p></div><div class='strophe'> <p>Y si el Espíritu de aquel que levantó de losmuertos a Jesús mora en vosotros,</p></div><div class='strophe'> <p>El que levantó de los muertos a Cristo Jesúsvivificará también vuestros cuerpos mortalespor su Espíritu que mora en vosotros.</p></div><div class='strophe'> <p>Porque el Señor es el Espíritu; y donde está el Espíritu del Señor, allí hay libertad.</p></div><div class='strophe'> <p>Por tanto, nosotros todos, mirando a cara descubierta como en un espejo la gloria del Señor,</p></div><div class='strophe'> <p>Somos transformados de gloria en gloriaen la misma imagen, como por el Espíritu delSeñor.</p></div>"
      },
      {
        "current": "app/assets/database/211-247.json",
        "number": 251,
        "author": "1883",
        "year": "Daniel W. Whittle",
        "title": "Lluvias de gracia",
        "verse": "Haré descender la lluvia en su tiempo; lluvias de bendición. Ezequiel 34:26",
        "lyric": "<div class='strophe'> <span class='strophe__number'>1</span> <p>Dios nos ha dado promesa:</p><p>lluvias de gracia enviaré,</p><p>Dones que os den fortaleza; gran bendición os daré.</p></div><div class='chorus'> <span class='chorus__title'>Coro</span> <p>Lluvias (lluvias) de gracia,</p><p>lluvias pedimos, Señor;</p><p>Mándanos lluvias copiosas, lluvias del Consolador.</p></div><div class='strophe'> <span class='strophe__number'>2</span> <p>Cristo nos dio la promesa</p><p>del Santo Consolador,</p><p>Dándonos paz y pureza, para su gloria y honor.</p></div><div class='chorus'> <span class='chorus__title'>Coro</span> <p>Lluvias (lluvias) de gracia,</p><p>lluvias pedimos, Señor;</p><p>Mándanos lluvias copiosas, lluvias del Consolador.</p></div><div class='strophe'> <span class='strophe__number'>3</span> <p>¡Oh Dios, a todo creyente</p><p>muestra tu amor y poder!</p><p>Tú eres de gracia la fuente; llena de paz nuestro ser.</p></div><div class='chorus'> <span class='chorus__title'>Coro</span> <p>Lluvias (lluvias) de gracia,</p><p>lluvias pedimos, Señor;</p><p>Mándanos lluvias copiosas, lluvias del Consolador.</p></div><div class='strophe'> <span class='strophe__number'>4</span> <p>Obra en tus siervos piadosos</p><p>celo, virtud y valor,</p><p>Dándonos dones preciosos,</p><p>dones del Consolador.</p></div><div class='chorus'> <span class='chorus__title'>Coro</span> <p>Lluvias (lluvias) de gracia,</p><p>lluvias pedimos, Señor;</p><p>Mándanos lluvias copiosas, lluvias del Consolador.</p></div>"
      },
      {
        "current": "app/assets/database/211-247.json",
        "number": 252,
        "author": "",
        "year": "",
        "title": "Fuisteis sellados",
        "verse": "Habiendo creído en él, fuisteis sellados con el Espíritu. Efesios 1:13",
        "lyric": "<div class='strophe'> <p>Habiendo oído la palabra de verdad,</p><p>El evangelio que nos da la salvación;</p><p>También habiendo creído en Cristo,</p><p>En Jesucristo que da la redención;</p></div><div class='strophe'> <p>Fuisteis sellados, sellados</p><p>con el Espíritu,</p><p>Con el Espíritu de la promesa;</p><p>Fuisteis sellados, sellados</p><p>con el Espíritu,</p><p>Con el Espíritu Santo de Dios.</p></div>"
      },
      {
        "current": "app/assets/database/211-247.json",
        "number": 253,
        "author": "Frank Bottome",
        "year": "1890",
        "title": "El fiel Consolador",
        "verse": "Os dará otro Consolador, para que esté con vosotros para siempre. Juan 14:16",
        "lyric": "<div class='strophe'> <span class='strophe__number'>1</span> <p>Doquier el hombre esté, la nueva proclamad;</p><p>Doquier haya aflicción, miserias y dolor,</p><p>Cristianos, anunciad que el Padre nos envió</p><p>Al fiel Consolador.</p></div><div class='chorus'> <span class='chorus__title'>Coro</span> <p>El fiel Consolador, el fiel Consolador</p><p>Que Dios nos prometió, al mundo descendió.</p><p>Doquier el hombre esté, decid que vino ya</p><p>El fiel Consolador.</p></div><div class='strophe'> <span class='strophe__number'>2</span> <p>La noche ya pasó, y al fin brilló la luz</p><p>Que vino a disipar las sombras del terror;</p><p>Así del alma fue aurora celestial,</p><p>El fiel Consolador.</p></div><div class='chorus'> <span class='chorus__title'>Coro</span> <p>El fiel Consolador, el fiel Consolador</p><p>Que Dios nos prometió, al mundo descendió.</p><p>Doquier el hombre esté, decid que vino ya</p><p>El fiel Consolador.</p></div><div class='strophe'> <span class='strophe__number'>3</span> <p>El es quien da salud y plena libertad,</p><p>A los que encadenó el fiero tentador;</p><p>Los rotos hierros, hoy dirán que vino ya</p><p>El fiel Consolador.</p></div><div class='chorus'> <span class='chorus__title'>Coro</span> <p>El fiel Consolador, el fiel Consolador</p><p>Que Dios nos prometió, al mundo descendió.</p><p>Doquier el hombre esté, decid que vino ya</p><p>El fiel Consolador.</p></div><div class='strophe'> <span class='strophe__number'>4</span> <p>¡Oh, grande, eterno amor! Mi lengua débil es</p><p>Para poder hablar del don que recibí,</p><p>Al renovar en mí la imagen celestial,</p><p>El fiel Consolador.</p></div><div class='chorus'> <span class='chorus__title'>Coro</span> <p>El fiel Consolador, el fiel Consolador</p><p>Que Dios nos prometió, al mundo descendió.</p><p>Doquier el hombre esté, decid que vino ya</p><p>El fiel Consolador.</p></div>"
      },
      {
        "current": "app/assets/database/211-247.json",
        "number": 254,
        "author": "",
        "year": "",
        "title": "Sed llenos, hermanos",
        "verse": "Antes bien sed llenos del Espíritu. Efesios 5:18",
        "lyric": "<div class='strophe'> <p>Sed llenos, hermanos,</p><p>del Santo Espíritu,</p><p>Hablando entre vosotros,</p><p>mandó el Salvador,</p><p>Con salmos e himnos y cánticos,</p><p>Cantando y alabando al Señor.</p></div>"
      },
      {
        "current": "app/assets/database/211-247.json",
        "number": 255,
        "author": "Charlie D. Tillman",
        "year": "1895",
        "title": "En un aposento alto",
        "verse": "Y fueron todos llenos del Espíritu Santo. Hechos 2:4",
        "lyric": "<div class='strophe'> <span class='strophe__number'>1</span> <p>En un aposento alto, con unánime fervor,</p><p>Ciento veinte esperaban</p><p>La promesa del Señor.</p></div><div class='chorus'> <span class='chorus__title'>Coro</span> <p>// Dios, manda tu gran poder, //</p><p>Dios, manda tu gran poder a cada corazón.</p></div><div class='strophe'> <span class='strophe__number'>2</span> <p>Con estruendo de los cielos</p><p>Descendió en plenitud;</p><p>Todos fueron bautizados Con el Santo Espíritu.</p></div><div class='chorus'> <span class='chorus__title'>Coro</span> <p>// Dios, manda tu gran poder, //</p><p>Dios, manda tu gran poder a cada corazón.</p></div><div class='strophe'> <span class='strophe__number'>3</span> <p>Desde aquel feliz momento</p><p>Mora el Consolador</p><p>En el corazón creyente, Dando dones, paz y amor.</p></div><div class='chorus'> <span class='chorus__title'>Coro</span> <p>// Dios, manda tu gran poder, //</p><p>Dios, manda tu gran poder a cada corazón.</p></div><div class='strophe'> <span class='strophe__number'>4</span> <p>El Espíritu de Cristo</p><p>Hoy nos llena de poder</p><p>Para ser testigos fieles, Predicando por doquier.</p></div><div class='chorus'> <span class='chorus__title'>Ultimo Coro</span> <p>Oh, Santo Espíritu, bendito celeste don,</p><p>Divino Consolador, reina en mi corazón.</p></div>"
      },
      {
        "current": "app/assets/database/211-247.json",
        "number": 256,
        "author": "",
        "year": "",
        "title": "Andad en el Espíritu",
        "verse": "Efesios 5:15; Gálatas 5:16; 1 Corintios 6:19-20 (RVA)",
        "lyric": "<div class='strophe'> <p>Mirad, pues, con cuidado, cómo os comportáis;no como imprudentes sino como prudentes.</p></div><div class='strophe'> <p>Andad en el Espíritu, y así jamás satisfaréislos malos deseos de la carne.</p></div><div class='strophe'> <p>¿O no sabéis que vuestro cuerpo es templo delEspíritu Santo, que mora en vosotros, el cualtenéis de Dios, y que no sois vuestros?</p></div><div class='strophe'> <p>Pues habéis sido comprados por precio.Por tanto, glorificad a Dios en vuestro cuerpo.</p></div>"
      },
      {
        "current": "app/assets/database/211-247.json",
        "number": 257,
        "author": "Isaac H. Meredith",
        "year": "1900",
        "title": "Espíritu de Cristo",
        "verse": "Orando....con toda oración y súplica en el Espíritu. Efesios 6:18",
        "lyric": "<div class='strophe'> <span class='strophe__number'>1</span> <p>Espíritu de Cristo, Lléname de tu amor,</p><p>Para que en mí se refleje la imagen del Salvador.</p></div><div class='chorus'> <span class='chorus__title'>Coro</span> <p>Llena, llena, lléname de tu amor;</p><p>Entrego a ti mi vida para servirte, Señor.</p></div><div class='strophe'> <span class='strophe__number'>2</span> <p>Espíritu de Cristo, lléname de tu poder,</p><p>Para que anuncie valiente la salvación por doquier.</p></div><div class='chorus'> <span class='chorus__title'>Coro</span> <p>Llena, llena, lléname de tu amor;</p><p>Entrego a ti mi vida para servirte, Señor.</p></div><div class='strophe'> <span class='strophe__number'>3</span> <p>Espíritu de Cristo, lléname de santo ardor,</p><p>Para que haga fielmente la obra de mi Señor.</p></div><div class='chorus'> <span class='chorus__title'>Coro</span> <p>Llena, llena, lléname de tu amor;</p><p>Entrego a ti mi vida para servirte, Señor.</p></div>"
      },
      {
        "current": "app/assets/database/211-247.json",
        "number": 258,
        "author": "Edwin Hatch",
        "year": "1878",
        "title": "Santo Consolador",
        "verse": "El ocuparse del Espíritu es vida y paz. Romanos 8:6",
        "lyric": "<div class='strophe'> <span class='strophe__number'>1</span> <p>Santo Consolador, aviva tú mi ser;</p><p>Que lo que amas pueda amar, y tu voluntad hacer.</p></div><div class='strophe'> <span class='strophe__number'>2</span> <p>Santo Consolador, puro quisiera ser,</p><p>Servirte siempre con fervor, y la tentación vencer.</p></div><div class='strophe'> <span class='strophe__number'>3</span> <p>Santo Consolador, dame tu santa unción;</p><p>Mantén el fuego de tu amor ardiendo en mi corazón.</p></div><div class='strophe'> <span class='strophe__number'>4</span> <p>Santo Consolador, lléname de virtud;</p><p>Vida del cielo gozaré andando en tu plenitud.</p></div>"
      },
      {
        "current": "app/assets/database/211-247.json",
        "number": 259,
        "author": "Daniel Iverson",
        "year": "1926",
        "title": "Espíritu del Trino Dios",
        "verse": "Esto tocó tus labios, y es quitada tu culpa, y limpio tu pecado. Isaías 6:7",
        "lyric": "<div class='strophe'> <p>Espíritu del Trino Dios,</p><p>llena mi ser;</p><p>Espíritu del Trino Dios,</p><p>llena mi ser.</p></div><div class='strophe'> <p>Quebrántame, consúmeme,</p><p>Transfórmame y úsame,</p><p>Espíritu del Trino Dios,</p><p>llena mi ser.</p></div>"
      },
      {
        "current": "app/assets/database/211-247.json",
        "number": 260,
        "author": "George Croly",
        "year": "1854",
        "title": "Transfórmame, Espíritu",
        "verse": "Somos transformados... por el Espíritu del Señor. 2 Corintios 3:18",
        "lyric": "<div class='strophe'> <span class='strophe__number'>1</span> <p>Transfórmame, Espíritu de Dios;</p><p>líbrame de la ambición carnal;</p><p>Renueva tí mi débil corazón,</p><p>y haz que te ame como debo amar.</p></div><div class='strophe'> <span class='strophe__number'>2</span> <p>No pido sueños, celestial visión,</p><p>Ni roto el velo del misterio ver,</p><p>ni querubines, ni eternal mansión;</p><p>Sólo que limpies, oh Señor, mi ser.</p></div><div class='strophe'> <span class='strophe__number'>3</span> <p>Hazme sensible a tu dirección;</p><p>quiero vencer el mal con decisión;</p><p>Calla la duda, la murmuración;</p><p>dame constancia en la oración.</p></div><div class='strophe'> <span class='strophe__number'>4</span> <p>Quiero amarte, oh Señor, mi Dios;</p><p>mi mente, alma y corazón te doy;</p><p>Veo la cruz do Cristo padeció,</p><p>y me consagro a tu servicio hoy.</p></div>"
      },
      {
        "current": "app/assets/database/211-247.json",
        "number": 261,
        "author": "",
        "year": "",
        "title": "Guiados por el Espíritu",
        "verse": "Juan 16:13a, 14; Romanos 8:14-16; Gálatas 5:18, 22, 23, 25 (RVR)",
        "lyric": "<div class='strophe'> <p>Pero cuando venga el Espíritu de verdad,él os guiará a toda la verdad;</p></div><div class='strophe'> <p>El me glorificará; porque tomaráde lo mío, y os lo haré saber.</p></div><div class='strophe'> <p>Porque todos los que son guiados por elEspíritu de Dios, éstos son hijos de Dios.</p></div><div class='strophe'> <p>Pues no habéis recibido el espíritu deesclavitud para estar otra vez en temor,</p></div><div class='strophe'> <p>Sino que habéis recibido el espíritu deadopción, por el cual clamamos: ¡Abba, Padre!</p></div><div class='strophe'> <p>El Espíritu mismo da testimonio nuestroespíritu, de que somos hijos de Dios.</p></div><div class='strophe'> <p>Pero si sois guiados por el Espíritu, no estáis bajo la ley.</p></div><div class='strophe'> <p>Mas el fruto del Espíritu es amor, gozo,paz, paciencia, benignidad, bondad, fe,</p></div><div class='strophe'> <p>Mansedumbre, templanza; contra tales cosas no hay ley.</p></div><div class='strophe'> <p>Si vivimos por el Espíritu, andemostambién por el Espíritu.</p></div>"
      },
      {
        "current": "app/assets/database/211-247.json",
        "number": 262,
        "author": "",
        "year": "",
        "title": "Divino Espíritu de Dios",
        "verse": "Si vivimos por el Espíritu, andemos también por el Espíritu. Gálatas 5:25",
        "lyric": "<div class='strophe'> <span class='strophe__number'>1</span> <p>Divino Espíritu de Dios,</p><p>enviado por Jesús,</p><p>Del bien condúcenos en pos</p><p>y alúmbrenos tu luz.</p></div><div class='strophe'> <span class='strophe__number'>2</span> <p>Haz comprender al corazón</p><p>cuán grave es su maldad,</p><p>Y danos el precioso don</p><p>de andar en santidad.</p></div><div class='strophe'> <span class='strophe__number'>3</span> <p>Venza la fuerza de tu luz</p><p>al fiero tentador</p><p>Por Cristo, quien muriendo en cruz</p><p>nuestro dolor sufrió.</p></div><div class='strophe'> <span class='strophe__number'>4</span> <p>Sé nuestro guía al transitar</p><p>La senda que él trazó;</p><p>Danos poder para triunfar,</p><p>Siguiendo de él en pos.</p></div>"
      },
      {
        "current": "app/assets/database/211-247.json",
        "number": 263,
        "author": "Elwood H. Stokes",
        "year": "1879",
        "title": "Santo Espíritu, controla",
        "verse": "Mirad... cómo andéis, no como necios sino como sabios. Efesios 5:15",
        "lyric": "<div class='strophe'> <span class='strophe__number'>1</span> <p>Santo Espíritu, controla</p><p>mi errante corazón;</p><p>Llena hoy de tu presencia esta humilde habitación.</p></div><div class='chorus'> <span class='chorus__title'>Coro</span> <p>Llena hoy, llena hoy, lléname con tu poder;</p><p>Tu amor y tu presencia llenen hoy mi humilde ser.</p></div><div class='strophe'> <span class='strophe__number'>2</span> <p>Débil soy, oh sí, muy débil;</p><p>a tus pies postrado estoy,</p><p>Esperando que tu gracia con poder me llene hoy.</p></div><div class='chorus'> <span class='chorus__title'>Coro</span> <p>Llena hoy, llena hoy, lléname con tu poder;</p><p>Tu amor y tu presencia llenen hoy mi humilde ser.</p></div><div class='strophe'> <span class='strophe__number'>3</span> <p>Santo Espíritu, tú eres</p><p>ese prometido don;</p><p>Quiero siempre obedecerte y gozar tu bendición.</p></div><div class='chorus'> <span class='chorus__title'>Coro</span> <p>Llena hoy, llena hoy, lléname con tu poder;</p><p>Tu amor y tu presencia llenen hoy mi humilde ser.</p></div><div class='strophe'> <span class='strophe__number'>4</span> <p>Oh, ayúdame, te pido,</p><p>a vivir en santidad;</p><p>Guíame en tus caminos, haz en mí tu voluntad.</p></div><div class='chorus'> <span class='chorus__title'>Coro</span> <p>Llena hoy, llena hoy, lléname con tu poder;</p><p>Tu amor y tu presencia llenen hoy mi humilde ser.</p></div>"
      },
      {
        "current": "app/assets/database/211-247.json",
        "number": 264,
        "author": "Bill Flanders",
        "year": "1981",
        "title": "Oh, divino Espíritu",
        "verse": "Mi Espíritu estará en medio de vosotros, no temáis. Hageo 2:5",
        "lyric": "<div class='strophe'> <span class='strophe__number'>1</span> <p>Oh, divino Espíritu,</p><p>templo puro quiero ser;</p><p>Guía todo mi andar, para no caer.</p></div><div class='strophe'> <span class='strophe__number'>2</span> <p>Oh, divino Espíritu,</p><p>comprensión tú me darás;</p><p>Los mandatos de mi Dios clarificarás.</p></div><div class='strophe'> <span class='strophe__number'>3</span> <p>Oh, divino Espíritu,</p><p>don de tí yo recibí;</p><p>Usame con tu poder, ¡Gloria sea a ti!</p></div>"
      },
      {
        "current": "app/assets/database/211-247.json",
        "number": 265,
        "author": "",
        "year": "",
        "title": "El fruto del Espíritu",
        "verse": "El fruto... es amor, gozo, paz,... contra tales cosas no hay ley. Gálatas 5:22-23",
        "lyric": "<div class='strophe'> <p>El fruto del Espíritu</p><p>es amor, gozo y paz;</p><p>El fruto es paciencia,</p><p>benignidad, bondad y fe;</p><p>El fruto del Espíritu</p><p>es mansedumbre y templanza;</p><p>Vivamos por el Espíritu,</p><p>y andemos siempre en él.</p></div><div class='strophe'> <p>Vivamos por el Espíritu,</p><p>y andemos siempre en él.</p></div>"
      },
      {
        "current": "app/assets/database/211-247.json",
        "number": 266,
        "author": "",
        "year": "",
        "title": "Satúrame, Señor",
        "verse": "Andad en el Espíritu. Gálatas 5:16",
        "lyric": "<div class='strophe'> <span class='strophe__number'>1</span> <p>Satúrame, Señor, con tu Espíritu;</p><p>Satúrame, Señor, con tu Espíritu,</p><p>// Y déjame sentir el fuego de tu amor</p><p>Aquí en mi corazón, oh Dios. //</p></div><div class='strophe'> <span class='strophe__number'>2</span> <p>Bendíceme, Señor, con tu Espíritu;</p><p>Bendíceme, Señor, con tu Espíritu,</p><p>// Y déjame sentir el gozo de tu amor</p><p>Momento tras momento, oh Dios. //</p></div><div class='strophe'> <span class='strophe__number'>3</span> <p>Envíame, Señor, con tu Espíritu;</p><p>Envíame, Señor, con tu Espíritu,</p><p>// Y déjame sentir tu corazón de amor</p><p>Y al mundo proclamarlo, oh Dios. //</p></div>"
      },
      {
        "current": "app/assets/database/211-247.json",
        "number": 267,
        "author": "Clara H. Scott",
        "year": "1895",
        "title": "Abre mis ojos",
        "verse": "El espíritu de verdad, él os guiará a toda la verdad. Juan 16:13",
        "lyric": "<div class='strophe'> <span class='strophe__number'>1</span> <p>Abre mis ojos a la luz; tu rostro quiero ver, Jesús;</p><p>Pon en mi corazón tu bondad y dame paz y santidad.</p><p>Humildemente acudo a ti, porque tu tierna voz oí;</p><p>Mi guía sé, Espíritu Consolador.</p></div><div class='strophe'> <span class='strophe__number'>2</span> <p>Abre mi oído a tu verdad; Yo quiero oir con claridad</p><p>Bellas palabras de dulce amor,</p><p>¡Oh mi bendito Salvador! Consagro a ti mi frágil ser;</p><p>Tu voluntad yo quiero hacer.</p><p>Llena mi ser, Espíritu Consolador.</p></div><div class='strophe'> <span class='strophe__number'>3</span> <p>Abre mis labios para hablar,</p><p>Y a todo el mundo proclamar</p><p>Que tú viniste a rescatar al más perdido pecador.</p><p>La mies es mucha, ¡Oh, Señor! Obreros faltan de valor;</p><p>Heme aquí, Espíritu Consolador.</p></div><div class='strophe'> <span class='strophe__number'>4</span> <p>Abre mi mente para ver más de tu amor y gran poder;</p><p>Dame tu gracia para triunfar,</p><p>y hazme en la lucha vencedor.</p><p>Sé tú mi escondedero fiel, y aumenta mi valor y fe;</p><p>Mi mano ten, Espíritu Consolador.</p></div>"
      }
    ]
  }
]
