[
  {
    "count": 652,
    "next": "https://abgmz.github.io/json-api-vnp/286-318.json",
    "previous": "https://abgmz.github.io/json-api-vnp/248-267.json",
    "lyrics": [
      {
        "current": "https://abgmz.github.io/json-api-vnp/268-285.json",
        "number": 268,
        "author": "",
        "year": "",
        "title": "Lámpara es tu Palabra",
        "verse": "Lámpara es a mis pies tu palabra y lumbrera a mi camino. Salmo 119:105",
        "lyric": "<div class='strophe'> <span class='strophe__number'>1</span> <p>Lámpara es a mis pies tu palabra,</p><p>Lámpara es a mis pies tu palabra,</p><p>Lámpara es a mis pies tu palabra,</p><p>Y lumbrera a mi camino.</p></div><div class='strophe'> <span class='strophe__number'>2</span> <p>La exposición de tus dichos alumbra,</p><p>La exposición de tus dichos alumbra,</p><p>La exposición de tus dichos alumbra,</p><p>Y hace entender a los simples.</p></div><div class='strophe'> <span class='strophe__number'>3</span> <p>Y para siempre, oh *Señor, permanece,</p><p>Y para siempre, oh *Señor, permanece,</p><p>Y para siempre, oh *Señor, permanece</p><p>Tu palabra en los cielos.</p></div>"
      },
      {
        "current": "https://abgmz.github.io/json-api-vnp/268-285.json",
        "number": 269,
        "author": "",
        "year": "",
        "title": "Tu Palabra me habla",
        "verse": "Salmo 119:12, 14, 16, 18, 27, 97; Mateo 4:4; 2 Timoteo 3:16, 17 (BLA)",
        "lyric": "<div class='strophe'> <p>Bendito tú, oh SEÑOR; enséñame tus estatutos.</p></div><div class='strophe'> <p>Me he gozado en el camino de tustestimonios, más que en todas las riquezas.</p></div><div class='strophe'> <p>Me deleitaré en tus estatutos, y no olvidaré tu palabra.</p></div><div class='strophe'> <p>Abre mis ojos, para que vea las maravillasde tu ley.</p></div><div class='strophe'> <p>Hazme entender el camino de tus preceptos,y meditaré en tus maravillas.</p></div><div class='strophe'> <p>¡Cuánto amo tu ley! Todo el díaes ella mi meditación.</p></div><div class='strophe'> <p>Escrito está: 'No sólo de pan vivirá el hombre,</p></div><div class='strophe'> <p>Sino de toda palabra que sale de la boca de Dios'.</p></div><div class='strophe'> <p>Toda Escritura es inspirada por Dios y útil paraenseñar, para reprender, para corregir, para instruiren justicia,</p></div><div class='strophe'> <p>a fin de que el hombre de Dios sea perfecto,equipado para toda buena obra.</p></div>"
      },
      {
        "current": "https://abgmz.github.io/json-api-vnp/268-285.json",
        "number": 270,
        "author": "John Burton",
        "year": "1805",
        "title": "Santa Biblia",
        "verse": "En mi corazón he guardado tus dichos para no pecar. Salmo 119:11",
        "lyric": "<div class='strophe'> <span class='strophe__number'>1</span> <p>Santa Biblia, para mí eres un tesoro aquí;</p><p>Tú contienes con verdad la divina voluntad;</p><p>Tú me dices lo que soy, de quién vine y a quién voy.</p></div><div class='strophe'> <span class='strophe__number'>2</span> <p>Tú reprendes mi dudar; tú me exhortas sin cesar;</p><p>Eres faro que a mi pie va guiando por la fe</p><p>A las fuentes del amor del bendito Salvador.</p></div><div class='strophe'> <span class='strophe__number'>3</span> <p>Eres infalible voz del Espíritu de Dios,</p><p>Que vigor al alma da cuando en aflicción está;</p><p>Tú me enseñas a triunfar de la muerte y el pecar.</p></div><div class='strophe'> <span class='strophe__number'>4</span> <p>Por tu santa letra sé que con Cristo reinaré;</p><p>Yo que tan indigno soy, por tu luz al cielo voy;</p><p>¡Santa Biblia! para mí eres un tesoro aquí.</p></div>"
      },
      {
        "current": "https://abgmz.github.io/json-api-vnp/268-285.json",
        "number": 271,
        "author": "Esteban Sywulka B.",
        "year": "",
        "title": "Los cielos anuncian tus obras",
        "verse": "Su eterno poder y deidad se hacen claramente visibles. Romanos 1:20",
        "lyric": "<div class='strophe'> <span class='strophe__number'>1</span> <p>Los cielos anuncian tus obras, Señor,</p><p>La gloria y potencia de su Creador;</p><p>El día y la noche levantan su voz,</p><p>Y en toda la tierra alaban a Dios.</p></div><div class='strophe'> <span class='strophe__number'>2</span> <p>Oh Dios, tu palabra es fiel y veraz;</p><p>A los que la guardan da gozo y paz.</p><p>Tus leyes perfectas y límpidas son;</p><p>Tu sabiduría dan al corazón.</p></div><div class='strophe'> <span class='strophe__number'>3</span> <p>Tus juicios excelsos son mucho mejor</p><p>Que oro o joyas de grande valor;</p><p>Aun miel que destila del rico panal</p><p>No tiene dulzura que sea igual.</p></div><div class='strophe'> <span class='strophe__number'>4</span> <p>Que cada palabra que expresa mi voz,</p><p>Las meditaciones de mi corazón,</p><p>A ti sean gratas, te imploro, Señor,</p><p>Mi Roca eterna y mi Redentor. Amén.</p></div>"
      },
      {
        "current": "https://abgmz.github.io/json-api-vnp/268-285.json",
        "number": 272,
        "author": "Robert Keene",
        "year": "1787",
        "title": "Cuán firme cimiento",
        "verse": "El fundamento de Dios está firme. 2 Timoteo 2:19",
        "lyric": "<div class='strophe'> <span class='strophe__number'>1</span> <p>¡Cuán firme cimiento se ha dado a la fe,</p><p>De Dios en su eterna palabra de amor!</p><p>¿Qué más él pudiera en su libro añadir,</p><p>Si todo a sus hijos lo ha dicho el Señor?</p></div><div class='strophe'> <span class='strophe__number'>2</span> <p>'No temas por nada, contigo yo soy;</p><p>Tu Dios yo soy solo, tu ayuda seré;</p><p>Tu fuerza y firmeza en mi diestra estarán,</p><p>Y en ella sostén y poder te daré.</p></div><div class='strophe'> <span class='strophe__number'>3</span> <p>'La llama no puede dañarte jamás,</p><p>Si en medio del fuego te ordeno pasar;</p><p>El oro de tu alma más puro será,</p><p>Pues sólo la escoria se habrá de quemar.</p></div><div class='strophe'> <span class='strophe__number'>4</span> <p>'No habrán de anegarte las ondas del mar,</p><p>Si en aguas profundas te ordeno salir;</p><p>Pues siempre contigo en angustia estaré,</p><p>Y todas tus penas podré reducir.</p></div><div class='strophe'> <span class='strophe__number'>5</span> <p>'Al alma que anhele la paz que hay en mí,</p><p>Jamás en sus luchas la habré de dejar;</p><p>Si todo el infierno la quiere perder,</p><p>¡Yo nunca, no nunca, la puedo olvidar!'</p></div>"
      },
      {
        "current": "https://abgmz.github.io/json-api-vnp/268-285.json",
        "number": 273,
        "author": "R. Kelso Carter",
        "year": "1886",
        "title": "Todas las promesas",
        "verse": "Nos ha dado preciosas promesas. 2 Pedro 1:4",
        "lyric": "<div class='strophe'> <span class='strophe__number'>1</span> <p>Todas las promesas del Señor Jesús</p><p>Son apoyo poderoso de mi fe;</p><p>Mientras luche aquí buscando yo su luz,</p><p>Siempre en sus promesas confiaré.</p></div><div class='chorus'> <span class='chorus__title'>Coro</span> <p>Grandes, fieles,</p><p>(Grandes, grandes, fieles son, grandes, grandes, fieles son, </p><p>Las promesas que el Señor Jesús ha dado;</p><p>Grandes, fieles,</p><p>(Grandes, grandes, fieles son, grandes, grandes, fieles son, </p><p>En ellas para siempre confiaré.</p></div><div class='strophe'> <span class='strophe__number'>2</span> <p>Todas las promesas para el hombre fiel,</p><p>El Señor en sus bondades cumplirá,</p><p>Y confiado sé que para siempre en él,</p><p>Paz eterna mi alma gozará.</p></div><div class='chorus'> <span class='chorus__title'>Coro</span> <p>Grandes, fieles,</p><p>(Grandes, grandes, fieles son, grandes, grandes, fieles son, </p><p>Las promesas que el Señor Jesús ha dado;</p><p>Grandes, fieles,</p><p>(Grandes, grandes, fieles son, grandes, grandes, fieles son, </p><p>En ellas para siempre confiaré.</p></div><div class='strophe'> <span class='strophe__number'>3</span> <p>Todas las promesas del Señor serán</p><p>Gozo y fuerza en nuestra vida terrenal;</p><p>Ellas en la dura lid nos sostendrán,</p><p>Y triunfar podremos sobre el mal.</p></div><div class='chorus'> <span class='chorus__title'>Coro</span> <p>Grandes, fieles,</p><p>(Grandes, grandes, fieles son, grandes, grandes, fieles son, </p><p>Las promesas que el Señor Jesús ha dado;</p><p>Grandes, fieles,</p><p>(Grandes, grandes, fieles son, grandes, grandes, fieles son, </p><p>En ellas para siempre confiaré.</p></div>"
      },
      {
        "current": "https://abgmz.github.io/json-api-vnp/268-285.json",
        "number": 274,
        "author": "",
        "year": "",
        "title": "Dame de vida el pan",
        "verse": "La palabra de Dios... vive y permanece para siempre. 1 Pedro 1:23",
        "lyric": "<div class='strophe'> <span class='strophe__number'>1</span> <p>Dame, mi buen Señor, de vida el pan,</p><p>Como lo hiciste un día junto al mar;</p><p>Mi alma te busca a ti, Verbo de Dios,</p><p>Y en tu Palabra espero oír tu voz.</p></div><div class='strophe'> <span class='strophe__number'>2</span> <p>'El pan de vida soy', dice el Señor;</p><p>Ven, alma hambrienta hoy al Salvador.</p><p>'Hambre jamás tendrá quien viene a mí;</p><p>Sed nunca más tendrá quien cree en mí'.</p></div><div class='strophe'> <span class='strophe__number'>3</span> <p>Bendice, oh Salvador, hoy tu verdad,</p><p>Cual bendijiste ayer el fresco pan;</p><p>En ella nos darás la libertad,</p><p>En ella encuentro gozo y solaz.</p></div><div class='strophe'> <span class='strophe__number'>4</span> <p>Con tu Espíritu toca mi ser,</p><p>Y abre mis ojos tu verdad a ver.</p><p>Muestra tu voluntad; dame tu luz;</p><p>Quiero en tu Libro verte a ti, Jesús.</p></div>"
      },
      {
        "current": "https://abgmz.github.io/json-api-vnp/268-285.json",
        "number": 275,
        "author": "",
        "year": "",
        "title": "Nunca se apartará",
        "verse": "Nunca se apartará de tu boca este libro de la ley. Josué 1:8",
        "lyric": "<div class='strophe'> <p>Nunca se apartará de tu boca</p><p>este libro de la ley,</p><p>Sino que de día y de noche tú meditarás en él;</p><p>Para que guardes y hagas conforme</p><p>A todo lo que en él está escrito;</p><p>Porque entonces harás</p><p>prosperar tu camino, Y todo te saldrá bien.</p><p>Nunca se apartará de tu boca</p><p>Este libro de la ley,</p><p>Sino que de día y de noche, tú meditarás en él.</p></div>"
      },
      {
        "current": "https://abgmz.github.io/json-api-vnp/268-285.json",
        "number": 276,
        "author": "Juan Bautista Cabrera",
        "year": "1914",
        "title": "Padre, tu Palabra",
        "verse": "Ordena mis pasos con tu palabra. Salmo 119:133",
        "lyric": "<div class='strophe'> <span class='strophe__number'>1</span> <p>Padre, tu Palabra es</p><p>mi delicia y mi solaz;</p><p>Guíe siempre aquí mis pies, y a mi alma traiga paz.</p></div><div class='chorus'> <span class='chorus__title'>Coro</span> <p>Es tu ley, Señor, faro celestial,</p><p>Que en perenne resplandor,</p><p>Norte y guía da al mortal.</p></div><div class='strophe'> <span class='strophe__number'>2</span> <p>Sí, obediente oí tu voz,</p><p>En tu gracia fuerza hallé,</p><p>Y con firme pie y veloz por tus sendas caminé.</p></div><div class='chorus'> <span class='chorus__title'>Coro</span> <p>Es tu ley, Señor, faro celestial,</p><p>Que en perenne resplandor,</p><p>Norte y guía da al mortal.</p></div><div class='strophe'> <span class='strophe__number'>3</span> <p>Tu verdad es mi sostén</p><p>Contra duda y tentación,</p><p>Y destila calma y bien</p><p>Cuando asalta la aflicción.</p></div><div class='chorus'> <span class='chorus__title'>Coro</span> <p>Es tu ley, Señor, faro celestial,</p><p>Que en perenne resplandor,</p><p>Norte y guía da al mortal.</p></div><div class='strophe'> <span class='strophe__number'>4</span> <p>Son tus dichos, para mí,</p><p>Prendas fieles de salud;</p><p>Dame, pues, que te oiga a ti,</p><p>Con filial solicitud.</p></div><div class='chorus'> <span class='chorus__title'>Coro</span> <p>Es tu ley, Señor, faro celestial,</p><p>Que en perenne resplandor,</p><p>Norte y guía da al mortal.</p></div>"
      },
      {
        "current": "https://abgmz.github.io/json-api-vnp/268-285.json",
        "number": 277,
        "author": "Felipe Blycker J.",
        "year": "1980",
        "title": "Tu Palabra es mi cántico",
        "verse": "Cánticos fueron para mí tus estatutos. Salmo 119:54",
        "lyric": "<div class='strophe'> <span class='strophe__number'>1</span> <p>Tu Palabra es mi cántico; esperanza y gozo da;</p><p>Es espada, arma divinal</p><p>Y escudo contra el mal.</p></div><div class='chorus'> <span class='chorus__title'>Coro</span> <p>Por la Santa Biblia te alabo,</p><p>Padre amante, mi Señor;</p><p>Te adoro, Cristo, Rey eterno; Gracias, oh Consolador.</p></div><div class='strophe'> <span class='strophe__number'>2</span> <p>Tu Palabra es mi lámpara, luz divina y guía fiel;</p><p>Más deseable que oro y plata es,</p><p>Y más dulce que la miel.</p></div><div class='chorus'> <span class='chorus__title'>Coro</span> <p>Por la Santa Biblia te alabo,</p><p>Padre amante, mi Señor;</p><p>Te adoro, Cristo, Rey eterno; Gracias, oh Consolador.</p></div><div class='strophe'> <span class='strophe__number'>3</span> <p>Tu Palabra es mi gran mentor; es semilla, eterno don;</p><p>Quiero siempre en ella meditar,</p><p>Hallo allí la salvación.</p></div><div class='chorus'> <span class='chorus__title'>Coro</span> <p>Por la Santa Biblia te alabo,</p><p>Padre amante, mi Señor;</p><p>Te adoro, Cristo, Rey eterno; Gracias, oh Consolador.</p></div><div class='strophe'> <span class='strophe__number'>4</span> <p>Tu Palabra trae libertad, me consuela en aflicción;</p><p>Cual martillo, y espejo es;</p><p>Fuego en el corazón.</p></div><div class='chorus'> <span class='chorus__title'>Coro</span> <p>Por la Santa Biblia te alabo,</p><p>Padre amante, mi Señor;</p><p>Te adoro, Cristo, Rey eterno; Gracias, oh Consolador.</p></div><div class='strophe'> <span class='strophe__number'>5</span> <p>Tu Palabra es mi agua y pan; limpia el ser y fuerza da;</p><p>Leche y carne encuentro yo allí</p><p>Que mi alma sostendrá.</p></div><div class='chorus'> <span class='chorus__title'>Coro</span> <p>Por la Santa Biblia te alabo,</p><p>Padre amante, mi Señor;</p><p>Te adoro, Cristo, Rey eterno; Gracias, oh Consolador.</p></div>"
      },
      {
        "current": "https://abgmz.github.io/json-api-vnp/268-285.json",
        "number": 278,
        "author": "Esteban Sywulka B.",
        "year": "1992",
        "title": "Gracias damos por la Biblia",
        "verse": "",
        "lyric": "<div class='strophe'> <span class='strophe__number'>1</span> <p>Gracias damos por la Biblia,</p><p>Tu Palabra es, Señor; Inspiraste al salmista,</p><p>Y al santo historiador. El profeta y el apóstol,</p><p>Desde la antigüedad, por tu Espíritu guiados,</p><p>Nos legaron tu verdad.</p></div><div class='strophe'> <span class='strophe__number'>2</span> <p>Gracias damos por la Biblia,</p><p>Y por esa multitud de escribas abnegados,</p><p>Que con gran exactitud a través de muchos siglos,</p><p>Aun en gran persecución, cada letra preservaron,</p><p>Para nuestra bendición.</p></div><div class='strophe'> <span class='strophe__number'>3</span> <p>Gracias damos por la Biblia,</p><p>Y por cada traductor que la ha hecho entendible</p><p>Al oyente y lector. Y por los que la publican,</p><p>Y el ejército mundial que trabaja esparciendo</p><p>Tu Palabra eternal.</p></div><div class='strophe'> <span class='strophe__number'>4</span> <p>Gracias damos por la Biblia,</p><p>Tu Palabra es, Señor; La tenemos al alcance,</p><p>Tu mensaje de amor. Oh ayúdanos, pedimos,</p><p>A leerla con afán, y a cumplirla diariamente;</p><p>Sus preceptos vida dan.</p></div>"
      },
      {
        "current": "https://abgmz.github.io/json-api-vnp/268-285.json",
        "number": 279,
        "author": "",
        "year": "",
        "title": "Proclamemos la Palabra",
        "verse": "1 Pedro 4:11a; 2 Timoteo 4:2; Hebreos 4:12; Romanos 10:17; 15:4; 10:15b (RVA)",
        "lyric": "<div class='strophe'> <p>Si alguien habla, hable conforme a las palabras deDios.</p></div><div class='strophe'> <p>Predica la palabra; mantente dispuesto a tiempoy fuera de tiempo; convence, reprende y exhortacon toda paciencia y enseñanza.</p></div><div class='strophe'> <p>Porque la Palabra de Dios es viva y eficaz,y más penetrante que toda espada de dos filos.</p></div><div class='strophe'> <p>Penetra hasta partir el alma y el espíritu, lascoyunturas y los tuétanos, y discierne lospensamientos y las intenciones del corazón</p></div><div class='strophe'> <p>Por esto, la fe es por el oír, y el oír por lapalabra de Cristo. Pues lo que fue escritoanteriormente fue escrito para nuestra enseñanza,a fin de que por la perseverancia y la exhortación delas Escrituras tengamos esperanza.</p></div><div class='strophe'> <p>¡Cuán hermosos son los pies de los que anuncianel evangelio de las cosas buenas!</p></div>"
      },
      {
        "current": "https://abgmz.github.io/json-api-vnp/268-285.json",
        "number": 280,
        "author": "Philip P. Bliss",
        "year": "1874",
        "title": "Bellas palabras de vida",
        "verse": "Las palabras que yo os he hablado son espíritu y son vida. Juan 6:63",
        "lyric": "<div class='strophe'> <span class='strophe__number'>1</span> <p>¡Oh! cantádmelas otra vez,</p><p>Bellas palabras de vida;</p><p>Hallo en ellas mi gozo y luz, Bellas palabras de vida.</p><p>Sí, de luz y vida son sostén y guía;</p></div><div class='chorus'> <span class='chorus__title'>Coro</span> <p>¡Qué bellas son, qué bellas son!</p><p>Bellas palabras de vida;</p><p>¡Qué bellas son, qué bellas son!</p><p>Bellas palabras de vida.</p></div><div class='strophe'> <span class='strophe__number'>2</span> <p>Jesucristo a todos da</p><p>Bellas palabras de vida;</p><p>Oye su dulce voz, mortal, bellas palabras de vida.</p><p>Bondadoso te salva, y al cielo te llama.</p></div><div class='chorus'> <span class='chorus__title'>Coro</span> <p>¡Qué bellas son, qué bellas son!</p><p>Bellas palabras de vida;</p><p>¡Qué bellas son, qué bellas son!</p><p>Bellas palabras de vida.</p></div<div class='strophe'> <span class='strophe__number'>3</span> <p>Grato el cántico sonará,</p><p>Bellas palabras de vida;</p><p>Tus pecados perdonará, bellas palabras de vida.</p><p>Sólo Cristo redime, vida nueva te ofrece.</p></div><div class='chorus'> <span class='chorus__title'>Coro</span> <p>¡Qué bellas son, qué bellas son!</p><p>Bellas palabras de vida;</p><p>¡Qué bellas son, qué bellas son!</p><p>Bellas palabras de vida.</p></div"
      },
      {
        "current": "https://abgmz.github.io/json-api-vnp/268-285.json",
        "number": 281,
        "author": "Enrique S. Turrall",
        "year": "1902",
        "title": "La Palabra del Señor",
        "verse": "Que prediques la palabra; ...redarguye, reprende, exhorta. 2 Timoteo 4:2",
        "lyric": "<div class='strophe'> <span class='strophe__number'>1</span> <p>La palabra del Señor predicad, predicad;</p><p>Con anhelo y oración, predicad, predicad.</p><p>Ante el mundo burlador</p><p>sed testigos de su amor;</p><p>El poder del Salvador predicad, predicad.</p></div><div class='strophe'> <span class='strophe__number'>2</span> <p>El ejemplo del Señor imitad, imitad;</p><p>Su humildad y tierno amor imitad, imitad.</p><p>Su constancia en la oración,</p><p>su paciencia en la aflicción,</p><p>Su bondad y compasión, imitad, imitad.</p></div><div class='strophe'> <span class='strophe__number'>3</span> <p>La venida del Señor esperad, esperad;</p><p>El vendrá, no tardará, esperad, esperad.</p><p>Como siervos del gran Rey,</p><p>trabajad con celo y fe;</p><p>Si sembráis, recogeréis; esperad, esperad.</p></div>"
      },
      {
        "current": "https://abgmz.github.io/json-api-vnp/268-285.json",
        "number": 282,
        "author": "",
        "year": "",
        "title": "Sembraré la simiente preciosa",
        "verse": "La semilla es la palabra de Dios. Lucas 8:11",
        "lyric": "<div class='strophe'> <span class='strophe__number'>1</span> <p>Sembraré la simiente preciosa</p><p>del glorioso evangelio de amor.</p><p>Sembraré, sembraré, mientras viva;</p><p>dejaré el resultado al Señor.</p></div><div class='chorus'> <span class='chorus__title'>Coro</span> <p>Sembraré, (Sembraré)) Sembraré, (Sembraré))</p><p>Mientras viva, simiente de amor.</p><p>Segaré, (Segaré,) Segaré, (Segaré,)</p><p>Al hallarme en la casa de Dios.</p></div><div class='strophe'> <span class='strophe__number'>2</span> <p>Sembraré en corazones sensibles</p><p>la doctrina del Dios de perdón.</p><p>Sembraré, sembraré, mientras viva;</p><p>dejaré el resultado al Señor.</p></div><div class='chorus'> <span class='chorus__title'>Coro</span> <p>Sembraré, (Sembraré)) Sembraré, (Sembraré))</p><p>Mientras viva, simiente de amor.</p><p>Segaré, (Segaré,) Segaré, (Segaré,)</p><p>Al hallarme en la casa de Dios.</p></div><div class='strophe'> <span class='strophe__number'>3</span> <p>Sembraré en corazones de mármol</p><p>la bendita palabra de Dios.</p><p>Sembraré, sembraré, mientras viva;</p><p>dejaré el resultado al Señor.</p></div><div class='chorus'> <span class='chorus__title'>Coro</span> <p>Sembraré, (Sembraré)) Sembraré, (Sembraré))</p><p>Mientras viva, simiente de amor.</p><p>Segaré, (Segaré,) Segaré, (Segaré,)</p><p>Al hallarme en la casa de Dios.</p></div>"
      },
      {
        "current": "https://abgmz.github.io/json-api-vnp/268-285.json",
        "number": 283,
        "author": "Felipe Blycker J.",
        "year": "1985",
        "title": "Esdras preparó su corazón",
        "verse": "Esdras había preparado su corazón para inquirir... la ley. Esdras 7:10",
        "lyric": "<div class='strophe'> <span class='strophe__number'>1</span> <p>Esdras preparó su corazón</p><p>para inquirir la ley de Jehová;</p><p>Esdras preparó su corazón</p><p>Para inquirir las Escrituras.</p><p>// La buena mano de Dios estaba con Esdras; //</p><p>Esdras preparó su corazón</p><p>Para inquirir las Escrituras.</p></div><div class='strophe'> <span class='strophe__number'>2</span> <p>Esdras preparó su corazón</p><p>para así cumplir la ley de Jehová;</p><p>Esdras preparó su corazón</p><p>Para así cumplir las Escrituras.</p><p>// La buena mano de Dios estaba con Esdras; //</p><p>Esdras preparó su corazón para</p><p>así cumplir las Escrituras.</p></div><div class='strophe'> <span class='strophe__number'>3</span> <p>Esdras preparó su corazón</p><p>para enseñar la ley de Jehová;</p><p>Esdras preparó su corazón para enseñar las Escrituras.</p><p>// La buena mano de Dios estaba con Esdras; //</p><p>Esdras preparó su corazón para enseñar las Escrituras.</p></div>"
      },
      {
        "current": "https://abgmz.github.io/json-api-vnp/268-285.json",
        "number": 284,
        "author": "",
        "year": "",
        "title": "Oh, Verbo encarnado",
        "verse": "Santos hombres de Dios hablaron siendo inspirados por el Espíritu Santo. 2 Pedro 1:21",
        "lyric": "<div class='strophe'> <span class='strophe__number'>1</span> <p>Oh, Verbo encarnado, oh, celestial Verdad,</p><p>Sabiduría eterna, luz en la oscuridad,</p><p>Te loamos por tu Libro que luz eterna da;</p><p>Cual lámpara divina su luz siempre dará.</p></div><div class='strophe'> <span class='strophe__number'>2</span> <p>Oh Cristo, a tu Iglesia legaste este don,</p><p>Que cual brillante faro provee dirección.</p><p>Es tu Palabra caja de joyas sin igual;</p><p>Pintura que retrata tu imagen celestial.</p></div><div class='strophe'> <span class='strophe__number'>3</span> <p>Delante de tu pueblo cual estandarte va;</p><p>Al mundo envuelto en nieblas</p><p>sus rayos puros da;</p><p>Es brújula, y carta que en tormentosa mar,</p><p>por todos los peligros a Cristo saben guiar.</p></div><div class='strophe'> <span class='strophe__number'>4</span> <p>Haz que tu Iglesia sea lumbrera, oh Señor,</p><p>Que brilla en las naciones</p><p>con santo resplandor;</p><p>Enseña al peregrino a guiarse por tu luz,</p><p>Seguro, hasta verte en gloria, oh Jesús.</p></div>"
      },
      {
        "current": "https://abgmz.github.io/json-api-vnp/268-285.json",
        "number": 285,
        "author": "",
        "year": "",
        "title": "REFLEXION: Mi Biblia, la Palabra de Dios",
        "verse": "",
        "lyric": "<div class='strophe'> <p>Te doy gracias, Señor, por tu Palabra, la SantaBiblia. Me deleita leerla, porque por medio de ella te has dado a conocer y me has mostrado el camino dela salvación.</p></div><div class='strophe'> <p>Tu Palabra me es más preciosa que el oro. Es lám-para que ilumina mi senda y pan que alimenta mi alma; es agua que refresca y purifica mi espíritu. Es espejo que me muestra cómo soy y espada en misluchas contra Satanás.</p></div><div class='strophe'> <p>La Biblia proviene de ti y por lo tanto refleja lo quetú eres. Ella es absolutamente confiable, porque eres fiel y no puedes mentir. Permanece para siempre,porque tú existes eternamente.</p></div><div class='strophe'> <p>Las Escrituras me instruyen en tu voluntad y mecapacitan para servirte. En ellas escucho tu voz y almeditar en su mensaje encuentro consuelo y paz.</p></div><div class='strophe'> <p>Con el salmista exclamo, '¡Oh, cuánto amo yo tuley!'. Tus enseñanzas son el tema de mi cántico. Impulsado por tu Palabra, elevo mi voz con notas deloor a ti.</p></div>"
      }
    ]
  }
]
