[
  {
    "count": 652,
    "next": "https://abgmz.github.io/json-api-vnp/498-527.json",
    "previous": "https://abgmz.github.io/json-api-vnp/448-472.json",
    "lyrics": [
      {
        "current": "https://abgmz.github.io/json-api-vnp/473-497.json",
        "number": 473,
        "author": "Sonia Andrea Linares M. y Oscar López M.",
        "year": "1991",
        "title": "El mundo hoy",
        "verse": "Para que...resplandecéis como luminares en el mundo. Filipenses 2:15",
        "lyric": "<div class='strophe'> <span class='strophe__number'>1</span> <p>El mundo hoy se encuentra en agonía,</p><p>pecado y dolor;</p><p>Con guerras, odios y envidias sufre</p><p>sin Dios y sin amor, sin amor, sin amor.</p></div><div class='chorus'> <span class='chorus__title'>Coro</span> <p>Tenemos Buenas Nuevas para darles</p><p>de Jesús el Salvador;</p><p>Con hechos y palabras demostremos</p><p>la verdad del gran amor del Señor, hmmm, hmmm.</p></div><div class='strophe'> <span class='strophe__number'>2</span> <p>Al mundo afligido el Evangelio con gozo proclamad;</p><p>Cual luminares en un siglo oscuro,</p><p>a Cristo levantad, levantad, levantad.</p></div><div class='chorus'> <span class='chorus__title'>Coro</span> <p>Tenemos Buenas Nuevas para darles</p><p>de Jesús el Salvador;</p><p>Con hechos y palabras demostremos</p><p>la verdad del gran amor del Señor, hmmm, hmmm.</p></div>"
      },
      {
        "current": "https://abgmz.github.io/json-api-vnp/473-497.json",
        "number": 474,
        "author": "James McGranahan",
        "year": "1886",
        "title": "Ved los millones",
        "verse": "Toda potestad me es dada en el cielo y en la tierra. Mateo 28:18",
        "lyric": "<div class='strophe'> <span class='strophe__number'>1</span> <p>Ved los millones que entre las tinieblas</p><p>Viven, perdidos, sin un Salvador.</p><p>¿Quién, quién irá las nuevas proclamando</p><p>Que por Jesús Dios salva al pecador?</p></div><div class='chorus'> <span class='chorus__title'>Coro</span> <p>Todo poder mi Dios me dio,</p><p>y a mis siervos mando yo:</p><p>“Id al mundo y proclamad el Evangelio,</p><p>y estoy con vosotros siempre”.</p></div><div class='strophe'> <span class='strophe__number'>2</span> <p>“A mí venid” la voz divina llama;</p><p>Clamad “venid” en nombre de Jesús.</p><p>Para salvarnos de la muerte eterna</p><p>Su vida él ofreció en la dura cruz.</p></div><div class='chorus'> <span class='chorus__title'>Coro</span> <p>Todo poder mi Dios me dio,</p><p>y a mis siervos mando yo:</p><p>“Id al mundo y proclamad el Evangelio,</p><p>y estoy con vosotros siempre”.</p></div><div class='strophe'> <span class='strophe__number'>3</span> <p>Que venga pronto el día tan glorioso,</p><p>en que los redimidos se unirán</p><p>En coro excelso, santo y jubiloso;</p><p>eternamente gloria a Dios darán.</p></div><div class='chorus'> <span class='chorus__title'>Coro</span> <p>Todo poder mi Dios me dio,</p><p>y a mis siervos mando yo:</p><p>“Id al mundo y proclamad el Evangelio,</p><p>y estoy con vosotros siempre”.</p></div>"
      },
      {
        "current": "https://abgmz.github.io/json-api-vnp/473-497.json",
        "number": 475,
        "author": "Ronaldo Blue",
        "year": "1967",
        "title": "Hasta lo último",
        "verse": "Seréis testigos en Jerusalén, en toda Judea, en Samaria, y hasta lo último. Hechos 1:8b",
        "lyric": "<div class='strophe'> <p>Hasta lo último, hasta lo último,</p><p>hasta lo último iremos.</p><p>Hasta lo último, hasta lo último</p><p>con Cristo nuestro Salvador.</p></div><div class='strophe'> <p>Con el poder del Espíritu</p><p>en el pueblo del Señor,</p><p>Seguiremos el perfecto plan de Dios.</p></div><div class='strophe'> <p>Hasta lo último, hasta lo último,</p><p>con Cristo nuestro Salvador.</p></div>"
      },
      {
        "current": "https://abgmz.github.io/json-api-vnp/473-497.json",
        "number": 476,
        "author": "",
        "year": "",
        "title": "La gran comisión",
        "verse": "Mateo 28:18b-20 (RVR)",
        "lyric": "<div class='strophe'> <p>Por tanto, id, y haced discípulos atodas las naciones, bautizándolosen el nombre del Padre, y del Hijo,y del Espíritu Santo;</p></div><div class='chorus'> <p>Enseñándoles que guardentodas las cosas que os hemandado; y he aquí yo estoycon vosotros todos los días,hasta el fin del mundo. Amén.</p></div>"
      },
      {
        "current": "https://abgmz.github.io/json-api-vnp/473-497.json",
        "number": 477,
        "author": "Vicente Mendoza",
        "year": "",
        "title": "Mensajeros del Maestro",
        "verse": "Me he propuesto predicar el evangelio donde Cristo no era conocido. Romanos 15:20 (NVI)",
        "lyric": "<div class='strophe'> <span class='strophe__number'>1</span> <p>Mensajeros del Maestro, anunciad al corazón</p><p>De Jesús la Buena Nueva, que nos brinda salvación.</p><p>De la cumbre de los montes, en los valles y en el mar,</p><p>Por doquier el Evangelio prestos id a declarar.</p></div><div class='strophe'> <span class='strophe__number'>2</span> <p>En los antros del pecado y en los sitios de aflicción,</p><p>Proclamad la paz de Cristo que traerá consolación.</p><p>Predicad a los cautivos su gloriosa libertad;</p><p>Al cansado y al caído Buenas Nuevas anunciad.</p></div>"
      },
      {
        "current": "https://abgmz.github.io/json-api-vnp/473-497.json",
        "number": 478,
        "author": "",
        "year": "",
        "title": "La paz os dejo",
        "verse": "Vino y anunció las buenas nuevas de paz. Efesios 2:17",
        "lyric": "<div class='strophe'> <p style='margin-bottom: 1.8rem'>1 - La paz os dejo, mi paz os doy,</p><p style='margin-bottom: 1.8rem'>2 - No como el mundo da;</p><p style='margin-bottom: 1.8rem'>3 - Id pues y proclamad:</p><p>4 - Dios nos da paz.</p></div>"
      },
      {
        "current": "https://abgmz.github.io/json-api-vnp/473-497.json",
        "number": 479,
        "author": "Marcos Witt",
        "year": "1990",
        "title": "Heme Aquí",
        "verse": "Entonces respondí yo: Heme aquí, envíame a mí. Isaías 6:8",
        "lyric": "<div class='strophe'> <p>Heme aquí, yo iré, Señor;</p><p>heme aquí, yo iré, Señor.</p><p>Envíame a mí,</p><p>que dispuesto estoy;</p><p>Llevaré tu gloria</p><p>a las naciones.</p></div>"
      },
      {
        "current": "https://abgmz.github.io/json-api-vnp/473-497.json",
        "number": 480,
        "author": "Mary Ann Thompson",
        "year": "1868",
        "title": "A prisa Iglesia",
        "verse": "Y nosotros también os anunciamos el evangelio de aquella promesa. Hechos 13:32",
        "lyric": "<div class='strophe'> <span class='strophe__number'>1</span> <p>¡A prisa, Iglesia! tu Señor espera;</p><p>al mundo entero di que Dios es luz,</p><p>Que el Creador no quiere que se pierda</p><p>una sola alma, lejos de Jesús.</p></div><div class='chorus'> <span class='chorus__title'>Coro</span> <p>Nuevas proclama de gozo y paz,</p><p>Nuevas de Cristo, salud y libertad.</p></div><div class='strophe'> <span class='strophe__number'>2</span> <p>Ve cuántos miles yacen retenidos</p><p>Por el pecado en lóbrega prisión;</p><p>No saben de aquel que ha sufrido</p><p>En vida y cruz por darles redención.</p></div><div class='chorus'> <span class='chorus__title'>Coro</span> <p>Nuevas proclama de gozo y paz,</p><p>Nuevas de Cristo, salud y libertad.</p></div><div class='strophe'> <span class='strophe__number'>3</span> <p>A todo pueblo y raza, fiel, proclama</p><p>Que Dios, en quien existen, es amor;</p><p>Que él bajó para salvar sus almas;</p><p>Por darles vida, muerte él sufrió.</p></div><div class='chorus'> <span class='chorus__title'>Coro</span> <p>Nuevas proclama de gozo y paz,</p><p>Nuevas de Cristo, salud y libertad.</p></div><div class='strophe'> <span class='strophe__number'>4</span> <p>Tus hijos da, que lleven su palabra,</p><p>Y con tus bienes hazlos proseguir.</p><p>Por ellos tu alma en oración derrama,</p><p>Que todo, Cristo te ha de retribuir.</p></div><div class='chorus'> <span class='chorus__title'>Coro</span> <p>Nuevas proclama de gozo y paz,</p><p>Nuevas de Cristo, salud y libertad.</p></div>"
      },
      {
        "current": "https://abgmz.github.io/json-api-vnp/473-497.json",
        "number": 481,
        "author": "",
        "year": "",
        "title": "Todo aquel que invocare",
        "verse": "Hagan discípulos de todas las naciones. Mateo 28:19 (NVI)",
        "lyric": "<div class='strophe'> <span class='strophe__number'>1</span> <p>Y ¿cómo podrán invocar si aún no han creído?</p><p>Y ¿cómo creerán, si no han oído?</p></div><div class='chorus'> <span class='chorus__title'>Coro</span> <p>Todo aquel que invocare el nombre del Señor,</p><p>Todo aquel que invocare el nombre del Señor,</p><p>Salvo será. Salvo será.</p><p>Y ¿qué harán los que aún no le conocen?</p></div><div class='strophe'> <span class='strophe__number'>2</span> <p>Y ¿cómo oirán, sin haber, sin haber quien les predique?</p><p>Y ¿quién predicará, si no enviamos?</p></div><div class='chorus'> <span class='chorus__title'>Coro</span> <p>Todo aquel que invocare el nombre del Señor,</p><p>Todo aquel que invocare el nombre del Señor,</p><p>Salvo será. Salvo será.</p><p>Y ¿qué harán los que aún no le conocen?</p></div>"
      },
      {
        "current": "https://abgmz.github.io/json-api-vnp/473-497.json",
        "number": 482,
        "author": "Joseph M. Scriven",
        "year": "1855",
        "title": "Oh qué amigo nos es Cristo",
        "verse": "Por nada estéis afanosos, sino sean conocidas vuestras peticiones. Filipenses 4:6",
        "lyric": "<div class='strophe'> <span class='strophe__number'>1</span> <p>¡Oh qué amigo nos es Cristo! El llevó nuestro dolor;</p><p>El nos manda que llevemos todo a Dios en oración.</p><p>¿Vive el hombre desprovisto de paz, gozo y santo amor?</p><p>Esto es porque no llevamos todo a Dios en oración.</p></div><div class='strophe'> <span class='strophe__number'>2</span> <p>¿Andas débil y cargado de cuidados y temor?</p><p>A Jesús, refugio eterno, dile todo en oración.</p><p>¿Te desprecian tus amigos?</p><p>Cuéntaselo en oración;</p><p>En sus brazos de amor tierno,</p><p>paz tendrá tu corazón.</p></div><div class='strophe'> <span class='strophe__number'>3</span> <p>Jesucristo es nuestro Amigo:</p><p>de esto prueba nos mostró,</p><p>Pues a redimirnos vino; por nosotros se humanó.</p><p>El castigo de su pueblo en su muerte él sufrió;</p><p>Cristo es un Amigo eterno;</p><p>sólo en él confío yo.</p></div>"
      },
      {
        "current": "https://abgmz.github.io/json-api-vnp/473-497.json",
        "number": 483,
        "author": "",
        "year": "",
        "title": "Deléitate asimismo en el Señor",
        "verse": "Deléitate asimismo en Jehová. Salmo 37:4",
        "lyric": "<div class='strophe'> <p>Deléitate asimismo en el Señor,</p><p>Deléitate asimismo en el Señor,</p><p>Y él te concederá</p><p>las peticiones de tu corazón;</p></div><div class='strophe'> <p>Confía en él, y él hará.</p><p>Y él te concederá</p><p>las peticiones de tu corazón;</p><p>Confía en él, y él hará.</p></div>"
      },
      {
        "current": "https://abgmz.github.io/json-api-vnp/473-497.json",
        "number": 484,
        "author": "",
        "year": "",
        "title": "Gracias, Señor",
        "verse": "Salmo 42:8*; 57:2; 55:17; 19:14*; 139:17; 138:1a, 3 (RVA)",
        "lyric": "<div class='strophe'> <p>De día, mandará el Señor su misericordia;</p></div><div class='chorus'> <p>Y de noche, su canción estará conmigo,la oración al Dios de mi vida.</p></div><div class='strophe'> <p>Clamaré al Dios altísimo, al Dios que mefavorece.</p></div><div class='chorus'> <p>Al anochecer, al amanecer y al mediodíaoraré y clamaré; y él oirá mi voz.</p></div><div class='strophe'> <p>Sean gratos los dichos de mi boca y la meditaciónde mi corazón delante de ti, oh Señor, Roca míay Redentor mío.</p></div><div class='chorus'> <p>¡Cuán preciosos me son, oh Dios, tuspensamientos!</p></div><div class='strophe'> <p>¡Cuán grande es la suma de ellos!</p></div><div class='chorus'> <p>Te doy gracias con todo mi corazón; el díaque clamé, me respondiste; mucho valorinfundiste a mi alma.</p></div>"
      },
      {
        "current": "https://abgmz.github.io/json-api-vnp/473-497.json",
        "number": 485,
        "author": "C. Austin Miles",
        "year": "1912",
        "title": "A solas al huerto yo voy",
        "verse": "Me llevó a la casa del banquete, y su bandera sobre mí fue amor. Cantares 2:4",
        "lyric": "<div class='strophe'> <span class='strophe__number'>1</span> <p>A solas al huerto yo voy,</p><p>Cuando duerme aún la floresta;</p><p>Y en quietud y paz con Jesús estoy</p><p>Oyendo absorto allí su voz.</p></div><div class='chorus'> <span class='chorus__title'>Coro</span> <p>El conmigo está, puedo oír su voz,</p><p>Me asegura de su amor;</p><p>Tan preciosa es nuestra comunión,</p><p>A solas con mi Señor.</p></div><div class='strophe'> <span class='strophe__number'>2</span> <p>Tan dulce es la voz del Señor,</p><p>que las aves guardan silencio;</p><p>Y tan sólo se oye su voz de amor,</p><p>que inmensa paz al alma da.</p></div><div class='chorus'> <span class='chorus__title'>Coro</span> <p>El conmigo está, puedo oír su voz,</p><p>Me asegura de su amor;</p><p>Tan preciosa es nuestra comunión,</p><p>A solas con mi Señor.</p></div><div class='strophe'> <span class='strophe__number'>3</span> <p>Me encanta a solas estar</p><p>con mi Cristo allá en el huerto,</p><p>Mas me manda ir para compartir</p><p>las buenas nuevas de su amor.</p></div><div class='chorus'> <span class='chorus__title'>Coro</span> <p>El conmigo está, puedo oír su voz,</p><p>Me asegura de su amor;</p><p>Tan preciosa es nuestra comunión,</p><p>A solas con mi Señor.</p></div>"
      },
      {
        "current": "https://abgmz.github.io/json-api-vnp/473-497.json",
        "number": 486,
        "author": "",
        "year": "",
        "title": "Oh Señor, de mañana oirás",
        "verse": "Yo a ti he clamado, oh Señor, y de mañana mi oración se presentará. Salmo 88:13",
        "lyric": "<div class='strophe'> <p>// Oh Señor, de mañana oirás mi voz,</p><p>De mañana me presentaré delante de ti, y esperaré. //</p></div><div class='strophe'> <p>Porque tú no eres un Dios</p><p>que se complace en la maldad;</p><p>el malo no habitará junto a ti.</p><p>Oh Señor, de mañana oirás mi voz,</p><p>De mañana me presentaré delante de ti, y esperaré.</p></div>"
      },
      {
        "current": "https://abgmz.github.io/json-api-vnp/473-497.json",
        "number": 487,
        "author": "William y Gloria Gaither",
        "year": "1974",
        "title": "Cristo, queremos dar gracias",
        "verse": "En él confió mi corazón, y...se gozó. Salmo 28:7",
        "lyric": "<div class='strophe'> <span class='strophe__number'>1</span> <p>/// Cristo, queremos dar gracias; ///</p><p>Dar gracias por tu gran bondad.</p></div><div class='strophe'> <span class='strophe__number'>2</span> <p>/// Cristo, queremos servirte; ///</p><p>Servirte por tu gran bondad.</p></div><div class='strophe'> <span class='strophe__number'>3</span> <p>/// Cristo, sabemos que vienes; ///</p><p>E iremos contigo a tu hogar.</p></div>"
      },
      {
        "current": "https://abgmz.github.io/json-api-vnp/473-497.json",
        "number": 488,
        "author": "Oscar López M.",
        "year": "1990",
        "title": "Gracias, oh Señor",
        "verse": "Oh Señor, oye mi oración, escucha mis ruegos. Salmo 143:1",
        "lyric": "<div class='strophe'> <p>Gracias, oh Señor,</p><p>por escucharnos hoy,</p><p>por tu presencia acá,</p><p>por darnos tu paz.</p><p>Amén.</p></div>"
      },
      {
        "current": "https://abgmz.github.io/json-api-vnp/473-497.json",
        "number": 489,
        "author": "Bob Cull",
        "year": "1976",
        "title": "Abre mis ojos",
        "verse": "Los de limpio corazón... verán a Dios. Mateo 5:8",
        "lyric": "<div class='strophe'> <p>Abre mis ojos,</p><p>quiero ver a Cristo;</p><p>Sentir su presencia,</p><p>decir que le amo;</p></div><div class='strophe'> <p>Abre mi oído;</p><p>ayúdame a oírte;</p><p>Abre mis ojos,</p><p>quiero ver a Cristo.</p></div>"
      },
      {
        "current": "https://abgmz.github.io/json-api-vnp/473-497.json",
        "number": 490,
        "author": "Jeremiah E. Rankin",
        "year": "1888",
        "title": "Dilo a Cristo",
        "verse": "Velad y orad, para que no entréis en tentación. Marcos 14:38",
        "lyric": "<div class='strophe'> <span class='strophe__number'>1</span> <p>Cuando estés cansado y abatido,dilo a Cristo,</p><p>dilo a Cristo; Si te sientes débil,</p><p>confundido, dilo a Cristo el Señor.</p></div><div class='chorus'> <span class='chorus__title'>Coro #1</span> <p>Dilo a Cristo, dilo a Cristo,</p><p>él es tu amigo más fiel;</p><p>No hay otro amigo como Cristo, dilo tan sólo a él.</p></div><div class='strophe'> <span class='strophe__number'>2</span> <p>Cuando estés de tentación cercado, mira a</p><p>Cristo, mira a Cristo; Cuando rujan</p><p>huestes de pecado, mira a Cristo el Señor.</p></div><div class='chorus'> <span class='chorus__title'>Coro #2</span> <p>Cuando estés de tentación cercado, mira a</p><p>Cristo, mira a Cristo; Cuando rujan</p><p>huestes de pecado, mira a Cristo el Señor.</p></div><div class='strophe'> <span class='strophe__number'>3</span> <p>Cuando llegue la final jornada, fía en Cristo,</p><p>fía en Cristo; Te dará al cielo franca</p><p>entrada, fía en Cristo el Señor.</p></div><div class='chorus'> <span class='chorus__title'>Coro #3</span> <p>Fía en Cristo, fía en Cristo, él es</p><p>tu amigo más fiel; No hay otro amigo</p><p>como Cristo, dilo tan sólo a él.</p></div>"
      },
      {
        "current": "https://abgmz.github.io/json-api-vnp/473-497.json",
        "number": 491,
        "author": "",
        "year": "",
        "title": "Padre nuestro celestial",
        "verse": "Lo que Dios creó... se toma con acción de gracias. 1 Timoteo 4:4",
        "lyric": "<div class='strophe'> <p>Padre nuestro celestial,</p><p>Dios inmenso de bondad,</p></div><div class='strophe'> <p>Tú nos mandas que pidamos</p><p>bendición por nuestro pan.</p></div><div class='strophe'> <p>Tú nos mandas que pidamos</p><p>bendición por nuestro pan.</p></div>"
      },
      {
        "current": "https://abgmz.github.io/json-api-vnp/473-497.json",
        "number": 492,
        "author": "",
        "year": "",
        "title": "Gracias damos, Señor",
        "verse": "Les diste pan del cielo en su hambre, y en su sed... aguas. Nehemías 9:15",
        "lyric": "<div class='strophe'> <p>Gracias damos, Señor, por el pan,</p><p>gracias damos, Señor, por el pan;</p></div><div class='strophe'> <p>Por el pan espiritual,</p><p>que alimenta a cada cual,</p><p>y también por el pan material.</p></div>"
      },
      {
        "current": "https://abgmz.github.io/json-api-vnp/473-497.json",
        "number": 493,
        "author": "William W. Walford",
        "year": "1845",
        "title": "Dulce Oración",
        "verse": "Me invocará, y yo le responderé. Salmo 91:15",
        "lyric": "<div class='strophe'> <span class='strophe__number'>1</span> <p>Dulce oración, dulce oración,</p><p>de toda influencia mundanal</p><p>elevas tú mi corazón,</p><p>al tierno Padre celestial.</p><p>¡Oh, cuántas veces tuve en ti</p><p>auxilio en ruda tentación,</p><p>y cuántos bienes recibí,</p><p>mediante ti, dulce oración!</p></div><div class='strophe'> <span class='strophe__number'>2</span> <p>Dulce oración, dulce oración, al trono excelso</p><p>de bondad tú llevarás mi petición</p><p>a Dios que escucha con piedad.</p><p>Por fe espero recibir la gran divina</p><p>bendición, y siempre a mi Señor</p><p>servir por tu virtud, dulce oración.</p></div><div class='strophe'> <span class='strophe__number'>3</span> <p>Dulce oración, dulce oración, que aliento</p><p>y gozo al alma das, en esta tierra</p><p>de aflicción consuelo siempre me serás.</p><p>Hasta el momento en que veré a Cristo</p><p>en célica mansión, entonces me despediré,</p><p>feliz, de ti, dulce oración.</p></div>"
      },
      {
        "current": "https://abgmz.github.io/json-api-vnp/473-497.json",
        "number": 494,
        "author": "Steve Hampton",
        "year": "1978",
        "title": "Abba Padre",
        "verse": "Habéis recibido el espíritu de adopción, por el cual clamamos: ¡Abba, Padre! Romanos 8:15",
        "lyric": "<div class='strophe'> <p>Estamos aquí *cantando juntos como familia,</p><p>Unidos dando alabanzas al Rey de reyes,</p><p>Cantando: “¡Abba Padre, digno eres tú!”</p><p>“¡Abba Padre, digno eres tú!”</p></div>"
      },
      {
        "current": "https://abgmz.github.io/json-api-vnp/473-497.json",
        "number": 495,
        "author": "",
        "year": "",
        "title": "Por estos alimentos, Dios",
        "verse": "Contentos con lo que tenéis ahora; porque él dijo: No te desampararé. Hebreos 13:5",
        "lyric": "<div class='strophe'> <p>1 - Por estos a-</p><p>2 - limentos, Dios,</p><p>3 - te damos gra-</p><p>4 - cias hoy.</p></div>"
      },
      {
        "current": "https://abgmz.github.io/json-api-vnp/473-497.json",
        "number": 496,
        "author": "Alfredo Colom M.",
        "year": "1953",
        "title": "¿Has oído, Señor?",
        "verse": "Amo al Señor, pues ha oído mi voz y mis súplicas. Salmo 116:1",
        "lyric": "<div class='strophe'> <span class='strophe__number'>1</span> <p>¿Has oído, Señor, mis oraciones?</p><p>¿Por ventura has oído mi clamor?</p><p>Pues derrama tus ricas bendiciones;</p><p style='margin-bottom: 1.8rem'>dame fe y alegría, oh Señor.</p><p>No pretendo riquezas con polilla.</p><p>cual los bienes terrenos que se van;</p><p>//Quiero, sí, que me des sabiduría,</p><p>así como le diste a San Juan. //</p></div><div class='strophe'> <span class='strophe__number'>2</span> <p>No pretendo, Señor, cosas terrenas;</p><p>no pretendo, mi Dios, más que tu amor;</p><p>Que me enseñes las cosas que son buenas,</p><p style='margin-bottom: 1.8rem'>que edifican, dan vida y dan valor.</p><p>Yo no dudo, Señor, que tú has oído</p><p>mis humildes querellas, mi oración;</p><p>// No lo dudo, Señor, porque he creído</p><p>que me has dado tu amor y tu perdón. //</p></div><div class='strophe'> <span class='strophe__number'>3</span> <p>Yo ya sé que tú quieres corazones</p><p>humillados, sin sombras de maldad;</p><p>Tú no quieres orgullos ni pasiones;</p><p style='margin-bottom: 1.8rem'>quieres fe, mansedumbre, paz, bondad.</p><p>¡Oh, Señor! tu piedad es infinita;</p><p>la he sentido latir dentro mi ser;</p><p>// Aquí estoy a tus pies, Padre bendito,</p><p>no permitas que vuelva yo a caer. //</p></div><div class='strophe'> <span class='strophe__number'>4</span> <p>Yo no quiero seguir la vieja historia</p><p>y caer, pues me has dado tu perdón,</p><p>Y espero estar contigo en gloria,</p><p style='margin-bottom: 1.8rem'>disfrutando de eterno galardón.</p><p>Si contestas, mi Dios, mis peticiones,</p><p>no caeré otra vez dentro del mal;</p><p>// Y yo sé que allá en las mansiones</p><p>me veré en tu reino celestial. //</p></div>"
      },
      {
        "current": "https://abgmz.github.io/json-api-vnp/473-497.json",
        "number": 497,
        "author": "Albert Midlane",
        "year": "1858",
        "title": "Avívanos, Señor",
        "verse": "Oh Señor, aviva tu obra en medio de los tiempos. Habacuc 3:2",
        "lyric": "<div class='strophe'> <p>Avívanos, Señor,</p><p>con nueva bendición;</p><p>Inflama el fuego de tu amor</p><p>en cada corazón.</p></div>"
      }
    ]
  }
]
