[
  {
    "count": 652,
    "next": "https://abgmz.github.io/json-api-vnp/543-571.json",
    "previous": "https://abgmz.github.io/json-api-vnp/498-527.json",
    "lyrics": [
      {
        "current": "https://abgmz.github.io/json-api-vnp/528-542.json",
        "number": 528,
        "author": "William F. Sherwin",
        "year": "1869",
        "title": "Siervos de Jesús",
        "verse": "Si la trompeta diere sonido incierto, ¿quién se preparará? 1 Corintios 14:8",
        "lyric": "<div class='strophe'> <span class='strophe__number'>1</span> <p>Siervos de Jesús, hombres de verdad,</p><p>Guardas del deber, somos, sí.</p><p>Libres de maldad, ricos en bondad,</p><p>Fieles en la lid seremos, sí.</p></div><div class='chorus'> <span class='chorus__title'>Coro</span> <p>¡Firmes! ¡Fuertes! Alcen la bandera,</p><p>Grande, noble emblema del Señor.</p><p>¡Prontos! ¡Bravos! Pasen la consigna:</p><p>Marchen, todos, vamos a vencer.</p></div><div class='strophe'> <span class='strophe__number'>2</span> <p>Nuestro Capitán es ya vencedor,</p><p>él nos redimió por su cruz.</p><p>Guardas del deber, él nos da poder,</p><p>y nos guiará hasta la luz.</p></div><div class='chorus'> <span class='chorus__title'>Coro</span> <p>¡Firmes! ¡Fuertes! Alcen la bandera,</p><p>Grande, noble emblema del Señor.</p><p>¡Prontos! ¡Bravos! Pasen la consigna:</p><p>Marchen, todos, vamos a vencer.</p></div><div class='strophe'> <span class='strophe__number'>3</span> <p>Invencibles son los que con afán</p><p>cada día van al deber.</p><p>Triunfos obtendrán y recibirán</p><p>magno galardón del Redentor.</p></div><div class='chorus'> <span class='chorus__title'>Coro</span> <p>¡Firmes! ¡Fuertes! Alcen la bandera,</p><p>Grande, noble emblema del Señor.</p><p>¡Prontos! ¡Bravos! Pasen la consigna:</p><p>Marchen, todos, vamos a vencer.</p></div>"
      },
      {
        "current": "https://abgmz.github.io/json-api-vnp/528-542.json",
        "number": 529,
        "author": "",
        "year": "",
        "title": "A ti, oh Señor",
        "verse": "A ti he elevado mi alma. Salmo 143:8",
        "lyric": "<div class='strophe'> <p>// A ti, oh Señor,</p><p>levantaré mi alma;</p><p>A ti, oh, Señor,</p><p>levantaré mi alma;</p><p>Dios mío, en ti confío;</p><p>no sea avergonzado,</p><p>no se alegren de mí mis</p><p>enemigos. //</p></div>"
      },
      {
        "current": "https://abgmz.github.io/json-api-vnp/528-542.json",
        "number": 530,
        "author": "John H. Yates",
        "year": "1891",
        "title": "Fe la victoria es",
        "verse": "Dios... nos da la victoria por medio de nuestro Señor Jesucristo. 1 Corintios 15:57",
        "lyric": "<div class='strophe'> <span class='strophe__number'>1</span> <p>Soldados del Señor Jesús,</p><p>valientes hoy luchad;</p><p>Constantes, mientras haya luz las armas empuñad.</p><p>Al enemigo combatid con fuerza y no temáis,</p><p>Pues la victoria en la lid por fe la obtendréis.</p></div><div class='chorus'> <span class='chorus__title'>Coro</span> <p>Fe la victoria es, (Fe la victoria es,)</p><p>fe la victoria es; (fe la victoria es;)</p><p>Fe nuestra victoria es,</p><p>que al mundo vencerá.</p></div><div class='strophe'> <span class='strophe__number'>2</span> <p>Con la bandera de su amor y espada de verdad</p><p>Seguimos fiel al Salvador, quien triunfos nos dará.</p><p>Marchamos tras los santos que luchando contra el mal</p><p>Lo derrotaron por la fe, y en gloria hoy están.</p></div><div class='chorus'> <span class='chorus__title'>Coro</span> <p>Fe la victoria es, (Fe la victoria es,)</p><p>fe la victoria es; (fe la victoria es;)</p><p>Fe nuestra victoria es,</p><p>que al mundo vencerá.</p></div><div class='strophe'> <span class='strophe__number'>3</span> <p>Al que venciere, el Señor de blanco vestirá;</p><p>Su nombre ante el Padre Dios, Jesús confesará.</p><p>Las alabanzas del gran Rey su pueblo cantará</p><p>Por siglos mil, pues por la fe, victoria siempre da.</p></div><div class='chorus'> <span class='chorus__title'>Coro</span> <p>Fe la victoria es, (Fe la victoria es,)</p><p>fe la victoria es; (fe la victoria es;)</p><p>Fe nuestra victoria es,</p><p>que al mundo vencerá.</p></div>"
      },
      {
        "current": "https://abgmz.github.io/json-api-vnp/528-542.json",
        "number": 531,
        "author": "",
        "year": "",
        "title": "Soldados de Dios",
        "verse": "Efesios 6:10-15, 17-18a; Romanos 13:12-14 (RVA)",
        "lyric": "<div class='strophe'> <p>Por lo demás, fortaleceos en el Señor y en el poderde su fuerza. Vestíos de toda la armadura de Dios,para que podáis hacer frente a las intrigas del diablo;</p></div><div class='chorus'> <p>Porque nuestra lucha no es contra sangre ni carne,sino contra principados, contra autoridades, contralos gobernantes de estas tinieblas, contra espíritusde maldad en los lugares celestiales.</p></div><div class='strophe'> <p>Por esta causa, tomad toda la armadura de Dios,para que podáis resistir en el día malo, y despuésde haberlo logrado todo, quedar firmes.</p></div><div class='chorus'> <p>Permaneced, pues, firmes, ceñidos con elcinturón de la verdad, vestidos con la corazade justicia y calzados vuestros pies con lapreparación para proclamar el evangelio de paz.</p></div><div class='strophe'> <p>Tomad también el casco de la salvación y la espada delEspíritu, que es la palabra de Dios, orando entodo tiempo.</p></div><div class='chorus'> <p>La noche está muy avanzada, y el día está cerca.Despojémonos, pues, de las obras de lastinieblas y vistámonos con las armas de la luz.</p></div><div class='strophe'> <p>Andemos decentemente, como de día; no conglotonerías y borracheras, ni en pecados sexualesy desenfrenos, ni en peleas y envidia.</p></div><div class='chorus'> <p>Más bien, vestíos del Señor Jesucristo,y no hagáis provisión para satisfacer losmalos deseos de la carne.</p></div>"
      },
      {
        "current": "https://abgmz.github.io/json-api-vnp/528-542.json",
        "number": 532,
        "author": "Lelia N. Morris",
        "year": "1905",
        "title": "¡A Combatir!",
        "verse": "Tenemos lucha contra... huestes espirituales de maldad. Efesios 6:12",
        "lyric": "<div class='strophe'> <span class='strophe__number'>1</span> <p>¡A combatir! resuena la guerrera voz</p><p>del buen Jesús, que hoy llamando está;</p><p>Sin desmayar seguidle siempre con valor</p><p>y la victoria plena os dará.</p></div><div class='chorus'> <span class='chorus__title'>Coro</span> <p>¡A la batalla, oh cristiano!</p><p>con el escudo de la cruz;</p><p>Sé buen soldado, pues a tu lado está el príncipe Jesús.</p><p>El con su gracia te sostiene, y con potencia sin igual</p><p>Su brazo extiende y te defiende</p><p>en esta lucha contra el mal.</p></div><div class='strophe'> <span class='strophe__number'>2</span> <p>¡A combatir! nos llama nuestro Salvador</p><p>Salid, luchad con nuestro Capitán;</p><p>En la constante lid, seguid sin vacilar</p><p>y venceréis las huestes de Satán.</p></div><div class='chorus'> <span class='chorus__title'>Coro</span> <p>¡A la batalla, oh cristiano!</p><p>con el escudo de la cruz;</p><p>Sé buen soldado, pues a tu lado está el príncipe Jesús.</p><p>El con su gracia te sostiene, y con potencia sin igual</p><p>Su brazo extiende y te defiende</p><p>en esta lucha contra el mal.</p></div><div class='strophe'> <span class='strophe__number'>3</span> <p>Al Rey de reyes, nuestro Salvador Jesús</p><p>Honor y gloria todos tributad,</p><p>Pues ya los suyos gozan de su plenitud</p><p>y pronto reinará la santidad.</p></div><div class='chorus'> <span class='chorus__title'>Coro</span> <p>¡A la batalla, oh cristiano!</p><p>con el escudo de la cruz;</p><p>Sé buen soldado, pues a tu lado está el príncipe Jesús.</p><p>El con su gracia te sostiene, y con potencia sin igual</p><p>Su brazo extiende y te defiende</p><p>en esta lucha contra el mal.</p></div>"
      },
      {
        "current": "https://abgmz.github.io/json-api-vnp/528-542.json",
        "number": 533,
        "author": "George Duffield",
        "year": "1858",
        "title": "Estad por Cristo firmes",
        "verse": "Así que, hermanos míos amados, estad firmes y constantes. 1 Corintios 15:58",
        "lyric": "<div class='strophe'> <span class='strophe__number'>1</span> <p>¡Estad por Cristo firmes, soldados de la cruz!</p><p>Alzad hoy la bandera, en nombre de Jesús.</p><p>Es vuestra la victoria, con él por Capitán;</p><p>Por él serán vencidas las huestes de Satán.</p></div><div class='strophe'> <span class='strophe__number'>2</span> <p>¡Estad por Cristo firmes! os llama él a la lid;</p><p>¡Con él, pues, a la lucha, soldados todos id!</p><p>Probad que sois valientes,</p><p>luchando contra el mal;</p><p>Es fuerte el enemigo, mas Cristo es sin igual.</p></div><div class='strophe'> <span class='strophe__number'>3</span> <p>¡Estad por Cristo firmes!</p><p>las fuerzas vienen de él;</p><p>El brazo de los hombres es débil y es infiel.</p><p>Vestíos la armadura, velad en oración;</p><p>Deberes y peligros demandan gran tesón.</p></div>"
      },
      {
        "current": "https://abgmz.github.io/json-api-vnp/528-542.json",
        "number": 534,
        "author": "Daniel W. Whittle",
        "year": "1887",
        "title": "Adelante con valor",
        "verse": "Has dado... bandera que alcen por causa de la verdad. Salmo 60:4",
        "lyric": "<div class='strophe'> <span class='strophe__number'>1</span> <p>Cual pendón hermoso despleguemos hoy</p><p>la bandera de la cruz;</p><p>La verdad del Evangelio, el blasón</p><p>del soldado de Jesús.</p></div><div class='chorus'> <span class='chorus__title'>Coro</span> <p>¡Adelante, adelante!</p><p>en pos de nuestro Salvador.</p><p>Nos da gozo y paz nuestro Rey,</p><p>¡Adelante con valor!</p></div><div class='strophe'> <span class='strophe__number'>2</span> <p>En el mundo proclamemos con fervor</p><p>esta historia de la cruz;</p><p>Bendigamos sin cesar al Redentor,</p><p>quien nos trajo paz y luz.</p></div><div class='chorus'> <span class='chorus__title'>Coro</span> <p>¡Adelante, adelante!</p><p>en pos de nuestro Salvador.</p><p>Nos da gozo y paz nuestro Rey,</p><p>¡Adelante con valor!</p></div><div class='strophe'> <span class='strophe__number'>3</span> <p>En el cielo nuestro cántico será</p><p>alabanzas a Jesús;</p><p>Nuestro corazón allí rebosará</p><p>de amor y gratitud.</p></div><div class='chorus'> <span class='chorus__title'>Coro</span> <p>¡Adelante, adelante!</p><p>en pos de nuestro Salvador.</p><p>Nos da gozo y paz nuestro Rey,</p><p>¡Adelante con valor!</p></div>"
      },
      {
        "current": "https://abgmz.github.io/json-api-vnp/528-542.json",
        "number": 535,
        "author": "Julia Ward Howe",
        "year": "1861",
        "title": "¡Gloria, gloria, aleluya!",
        "verse": "En todas estas cosas somos más que vencedores. Romanos 8:37",
        "lyric": "<div class='strophe'> <span class='strophe__number'>1</span> <p>Es el Dios de los ejércitos en quien yo confiaré;</p><p>y con címbalos de gozo al Señor ensalzaré.</p><p>El despide los relámpagos, mas nunca temeré;</p><p>él es mi Protector.</p></div><div class='chorus'> <span class='chorus__title'>Coro</span> <p>¡Gloria, gloria, aleluya!</p><p>¡Gloria, gloria, aleluya!</p><p>¡Gloria, gloria, aleluya!</p><p>A Cristo doy loor.</p></div><div class='strophe'> <span class='strophe__number'>2</span> <p>Con ejército no gana sus victorias el Señor;</p><p>ni con armas lucha contra Satanás, el Tentador.</p><p>La potencia del Espíritu, ha dicho el Dios de amor,</p><p>es lo que vencerá.</p></div><div class='chorus'> <span class='chorus__title'>Coro</span> <p>¡Gloria, gloria, aleluya!</p><p>¡Gloria, gloria, aleluya!</p><p>¡Gloria, gloria, aleluya!</p><p>A Cristo doy loor.</p></div><div class='strophe'> <span class='strophe__number'>3</span> <p>En Belén de Palestina el Señor Jesús nació,</p><p>y después de treinta años, en la cruenta cruz murió.</p><p>Pero vive para siempre, pues la tumba ya venció;</p><p>su nombre alabaré.</p></div><div class='chorus'> <span class='chorus__title'>Coro</span> <p>¡Gloria, gloria, aleluya!</p><p>¡Gloria, gloria, aleluya!</p><p>¡Gloria, gloria, aleluya!</p><p>A Cristo doy loor.</p></div>"
      },
      {
        "current": "https://abgmz.github.io/json-api-vnp/528-542.json",
        "number": 536,
        "author": "Arturo Borja Anderson",
        "year": "1966",
        "title": "Resurrección",
        "verse": "",
        "lyric": "<div class='strophe'> <p>Tras la noche tenebrosa</p><p>Y el rugir del vendaval,</p><p>Tiende el alba majestuosa</p><p>Cortinaje de cristal;</p></div><div class='strophe'> <p>Y aparece un claro día</p><p>Sin las brumas del dolor,</p><p>Donde el ama se extasía</p><p>Y se goza el puro amor.</p></div><div class='strophe'> <p>Tras la nota vespertina</p><p>Que oprimiera el corazón.</p><p>Viene aquella matutina</p><p>Que se alarga en fiel canción.</p></div><div class='strophe'> <p>Cual la ninfa misteriosa</p><p>Que en su tumba se guardó,</p><p>Y en brillante mariposa</p><p>Con el tiempo se tornó,</p></div><div class='strophe'> <p>Tal aquel que duerme en Cristo,</p><p>De su sueño al despertar,</p><p>Con ropaje nunca visto,</p><p>Lo veréis resucitar.</p></div><div class='strophe'> <p>Y la tienda que aprisiona</p><p>Cual gusano en vil zurrón,</p><p>Con poder se desmorona,</p><p>¿Qué es, o muerte, tu aguijón?</p></div>"
      },
      {
        "current": "https://abgmz.github.io/json-api-vnp/528-542.json",
        "number": 537,
        "author": "",
        "year": "",
        "title": "La segunda venida de Cristo",
        "verse": "1 Tesalonicenses 4: 13-18. 2 Timoteo 4:7-8 (RVR)",
        "lyric": "<div class='strophe'> <p>Tampoco queremos, hermanos, que ignoréis acercade los que duermen, para que no os entristezcáiscomo los otros que no tienen esperanza.</p></div><div class='chorus'> <p>Porque si creemos que Jesús murióy resucitó, así también traerá Dios conJesús a los que durmieron en él.</p></div><div class='strophe'> <p>Por lo cual os decimos esto en palabra del Señor:que nosotros que vivimos, que habremos quedadohasta la venida del Señor, no precederemos a losque durmieron.</p></div><div class='chorus'> <p>Porque el Señor mismo con voz de mando,con voz de arcángel, y con trompeta deDios, descenderá del cielo; y los muertosen Cristo resucitarán primero.</p></div><div class='strophe'> <p>Luego nosotros los que vivimos, los que hayamosquedado, seremos arrebatados juntamente conellos en las nubes para recibir al Señor en el aire,</p></div><div class='chorus'> <p>Y así estaremos siempre con el Señor. Portanto, alentaos los unos a los otros con estaspalabras.</p></div><div class='strophe'> <p>He peleado la buena batalla, he acabado la carrera,he guardado la fe.</p></div><div class='chorus'> <p>Por lo demás, me está guardada la coronade justicia, la cual me dará el Señor, juezjusto, en aquel día; y no sólo a mí, sinotambién a todos los que aman su venida.</p></div>"
      },
      {
        "current": "https://abgmz.github.io/json-api-vnp/528-542.json",
        "number": 538,
        "author": "Isaac Watts",
        "year": "1724",
        "title": "¿Soy yo soldado de Jesús?",
        "verse": "Velad, estad firmes en la fe; portaos varonilmente, y esforzaos. 1 Corintios 16:13",
        "lyric": "<div class='strophe'> <span class='strophe__number'>1</span> <p>¿Soy yo soldado de Jesús y siervo del Señor?</p><p>No temeré llevar su cruz,</p><p>sufriendo por su amor.</p></div><div class='chorus'> <span class='chorus__title'>Coro</span> <p>Después de la batalla nos coronará,</p><p>Dios nos coronará,</p><p>Dios nos coronará;</p><p>Después de la batalla</p><p>nos coronará</p><p>En aquella santa Sion.</p></div><div class='strophe'> <span class='strophe__number'>2</span> <p>Lucharon otros por la fe; valiente anhelo ser.</p><p>Por mi Señor yo pelearé,</p><p>confiando en su poder.</p></div><div class='chorus'> <span class='chorus__title'>Coro</span> <p>Después de la batalla nos coronará,</p><p>Dios nos coronará,</p><p>Dios nos coronará;</p><p>Después de la batalla</p><p>nos coronará</p><p>En aquella santa Sion.</p></div><div class='strophe'> <span class='strophe__number'>3</span> <p>Es menester que sea fiel, que nunca vuelva atrás,</p><p>Que siga siempre en pos de él,</p><p>y me guiará en paz.</p></div><div class='chorus'> <span class='chorus__title'>Coro</span> <p>Después de la batalla nos coronará,</p><p>Dios nos coronará,</p><p>Dios nos coronará;</p><p>Después de la batalla</p><p>nos coronará</p><p>En aquella santa Sion.</p></div>"
      },
      {
        "current": "https://abgmz.github.io/json-api-vnp/528-542.json",
        "number": 539,
        "author": "Sabine Baring-Gould",
        "year": "1864",
        "title": "Firmes y adelante",
        "verse": "Pelea la buena batalla de la fe. 1 Timoteo 6:12",
        "lyric": "<div class='strophe'> <span class='strophe__number'>1</span> <p>Firmes y adelante, huestes de la fe,</p><p>sin temor alguno, que Jesús nos ve.</p><p>Jefe soberano, Cristo al frente va,</p><p>y la regia enseña tremolando está.</p></div><div class='chorus'> <span class='chorus__title'>Coro</span> <p>Firmes y adelante, huestes de la fe,</p><p>Sin temor alguno, que Jesús nos ve. (Amén)</p></div><div class='strophe'> <span class='strophe__number'>2</span> <p>Al sagrado nombre de nuestro Adalid,</p><p>Tiembla el enemigo y huye de la lid.</p><p>Nuestra es la victoria, dad a Dios loor;</p><p>Y óigalo el averno lleno de pavor.</p></div><div class='chorus'> <span class='chorus__title'>Coro</span> <p>Firmes y adelante, huestes de la fe,</p><p>Sin temor alguno, que Jesús nos ve. (Amén)</p></div><div class='strophe'> <span class='strophe__number'>3</span> <p>Muévese potente la Iglesia de Dios;</p><p>De los ya gloriosos marchamos en pos;</p><p>Somos sólo un cuerpo, y uno es el Señor,</p><p>Una la esperanza, y uno nuestro amor.</p></div><div class='chorus'> <span class='chorus__title'>Coro</span> <p>Firmes y adelante, huestes de la fe,</p><p>Sin temor alguno, que Jesús nos ve. (Amén)</p></div><div class='strophe'> <span class='strophe__number'>4</span> <p>Tronos y coronas pueden perecer;</p><p>De Jesús la Iglesia constante ha de ser;</p><p>Nada en contra suya prevalecerá,</p><p>Porque la promesa nunca faltará.</p></div><div class='chorus'> <span class='chorus__title'>Coro</span> <p>Firmes y adelante, huestes de la fe,</p><p>Sin temor alguno, que Jesús nos ve. (Amén)</p></div>"
      },
      {
        "current": "https://abgmz.github.io/json-api-vnp/528-542.json",
        "number": 540,
        "author": "Reginald Heber",
        "year": "1827",
        "title": "Sale a la lucha",
        "verse": "",
        "lyric": "<div class='strophe'> <span class='strophe__number'>1</span> <p>Sale a la lucha el Salvador,</p><p>corona a conquistar;</p><p>Su insignia luce por doquier,</p><p>flamante al frente va;</p></div><div class='strophe'> <span class='strophe__number'>2</span> <p>Su cáliz ¿quién lo beberá</p><p>triunfando del dolor?</p><p>Aquel que lleva aquí su cruz</p><p>del Cristo es seguidor.</p></div>"
      },
      {
        "current": "https://abgmz.github.io/json-api-vnp/528-542.json",
        "number": 541,
        "author": "Alfredo Colom M.",
        "year": "1953",
        "title": "A la victoria Jess nos llama",
        "verse": "En el mundo tendréis aflicción; pero confiad, he vencido al mundo. Juan 16:33",
        "lyric": "<div class='strophe'> <span class='strophe__number'>1</span> <p>A la victoria Jesús nos llama,</p><p>va con nosotros el Capitán;</p><p>// Marchemos, pues, a combatir</p><p>a los ejércitos de Satán. //</p></div><div class='strophe'> <span class='strophe__number'>2</span> <p>A la victoria Jesús nos llama,</p><p>nos llama a todos los de su grey;</p><p>// Hay que triunfar contra el mal,</p><p>que con nosotros va nuestro Rey. //</p></div><div class='strophe'> <span class='strophe__number'>3</span> <p>A la victoria Jesús nos llama,</p><p>sin detenernos, sin ir atrás,</p><p>// Hasta triunfar, hasta vencer</p><p>las fieras huestes de Satanás. //</p></div><div class='strophe'> <span class='strophe__number'>4</span> <p>A la victoria Jesús nos llama,</p><p>ya los clarines sonando están,</p><p>// Pues al vencer contra el mal,</p><p>los mismos cielos se alegrarán. //</p></div>"
      },
      {
        "current": "https://abgmz.github.io/json-api-vnp/528-542.json",
        "number": 542,
        "author": "Carrie E. Breck",
        "year": "1903",
        "title": "Cristo nuestro Jefe",
        "verse": "Yo soy el Alfa y la Omega... el Todopoderoso. Apocalipsis 1:8",
        "lyric": "<div class='strophe'> <span class='strophe__number'>1</span> <p>Cristo, nuestro Jefe, nos lleva a la lid;</p><p>Nunca temeremos si él nos dice, 'Id'.</p><p>Aún su justa causa se suele ignorar,</p><p>mas le seguiremos fiel.</p></div><div class='chorus'> <span class='chorus__title'>Coro</span> <p>Adelante es la orden del Señor;</p><p>Adelante vamos sin temor.</p><p>'Adelante' canta ya su grey;</p><p>La victoria es cierta con el Rey.</p></div><div class='strophe'> <span class='strophe__number'>2</span> <p>Nuestro estandarte luce por doquier,</p><p>Con poder y gloria siempre se ha de ver.</p><p>Cristo nuestro Jefe al mundo ya venció</p><p>Y le seguiremos fiel.</p></div><div class='chorus'> <span class='chorus__title'>Coro</span> <p>Adelante es la orden del Señor;</p><p>Adelante vamos sin temor.</p><p>'Adelante' canta ya su grey;</p><p>La victoria es cierta con el Rey.</p></div><div class='strophe'> <span class='strophe__number'>3</span> <p>La furiosa lucha larga no será,</p><p>Y a los vencedores nos congregará,</p><p>Donde cantaremos un himno triunfal;</p><p>Sí, le seguiremos fiel.</p></div><div class='chorus'> <span class='chorus__title'>Coro</span> <p>Adelante es la orden del Señor;</p><p>Adelante vamos sin temor.</p><p>'Adelante' canta ya su grey;</p><p>La victoria es cierta con el Rey.</p></div>"
      }
    ]
  }
]
