[
  {
    "count": 652,
    "next": "app/assets/database/624-652.json",
    "previous": "app/assets/database/572-602.json",
    "lyrics": [
      {
        "current": "app/assets/database/603-623.json",
        "number": 603,
        "author": "Esteban Sywulka B.",
        "year": "1992",
        "title": "Honor a las madres",
        "verse": "La mujer que teme a Jehová, ésa será alabada. Proverbios 31:30",
        "lyric": "<div class='strophe'> <span class='strophe__number'>1</span> <p>Ante tu presencia, Dios, reunidos, a una voz,</p><p>Hoy rendimos todo honor a las madres, oh Señor,</p><p>Por su amor y comprensión, y su tierna compasión.</p></div><div class='strophe'> <span class='strophe__number'>2</span> <p>Con profunda gratitud, por su leal solicitud,</p><p>Su constante y fiel labor, te alabamos, Salvador;</p><p>Son inmensa bendición al hogar y la nación.</p></div><div class='strophe'> <span class='strophe__number'>3</span> <p>Oye, pues, la petición de esta fiel congregación;</p><p>Te rogamos con fervor por las madres, Dios de amor;</p><p>Que con tu divino bien coronadas hoy estén.</p></div>"
      },
      {
        "current": "app/assets/database/603-623.json",
        "number": 604,
        "author": "",
        "year": "",
        "title": "Honor a los padres",
        "verse": "",
        "lyric": "<div class='strophe'> <span class='strophe__number'>1</span> <p>Ante nuestro Padre Dios le alabamos con la voz</p><p>Por su Hijo único quien al mundo él mandó;</p><p>Hoy brindamos todo honor a los padres con amor.</p></div><div class='strophe'> <span class='strophe__number'>2</span> <p>Dios al padre Adán creó y la vida en él sopló;</p><p>A su imagen lo formó y su comunión buscó;</p><p>Hoy brindamos todo honor a los padres con amor.</p></div><div class='strophe'> <span class='strophe__number'>3</span> <p>Del hogar, cabeza es él, a su esposa siempre es fiel;</p><p>Por su ejemplo y dirección, por su amor y provisión,</p><p>Hoy brindamos todo honor a los padres con amor.</p></div><div class='strophe'> <span class='strophe__number'>4</span> <p>Sabio líder familiar,</p><p>digno y fuerte para guiar;</p><p>Loor al Padre celestial por el padre terrenal;</p><p>Hoy brindamos todo honor a los padres con amor.</p></div>"
      },
      {
        "current": "app/assets/database/603-623.json",
        "number": 605,
        "author": "Elizabeth de Gravelles",
        "year": "1986",
        "title": "Bienaventurada",
        "verse": "Se levantan sus hijos y la llaman bienaventurada. Proverbios 31:28",
        "lyric": "<div class='strophe'> <span class='strophe__number'>1</span> <p>Hoy reconocemos con amor y alegría</p><p>Todo lo que hace la madre en su hogar,</p><p>Cómo sus palabras y su sabiduría</p><p>Dan a la familia consuelo y bienestar.</p></div><div class='strophe'> <span class='strophe__number'>2</span> <p>Madres compasivas dan al necesitado;</p><p>Valen más que perlas, son joyas del Señor.</p><p>Madres tan activas, siempre a nuestro lado,</p><p>Con sus mil labores nos muestran su amor.</p></div><div class='strophe'> <span class='strophe__number'>3</span> <p>Bienaventuradas son las madres virtuosas</p><p>Que confían siempre, temiendo al Señor;</p><p>La Palabra dice que son fieles esposas,</p><p>Cuidadosas madres y dignas de honor.</p></div>"
      },
      {
        "current": "app/assets/database/603-623.json",
        "number": 606,
        "author": "Pablo Sywulka B.",
        "year": "1990",
        "title": "Tú honraste a las madres",
        "verse": "Su estima sobrepasa largamente a la de las piedras preciosas. Proverbios 31:10",
        "lyric": "<div class='strophe'> <span class='strophe__number'>1</span> <p>Tú honraste a las madres, oh bendito Salvador,</p><p>Al nacer en este mundo como hijo de mujer;</p><p>Haz, Señor, que cada madre cumpla siempre su deber,</p><p>Que te honre en todo tiempo y te sirva con amor.</p></div><div class='strophe'> <span class='strophe__number'>2</span> <p>Tú, Señor, que disfrutaste del cuidado maternal,</p><p>Hoy bendice a las madres, te venimos a pedir;</p><p>Que enseñen a sus hijos tus caminos a seguir,</p><p>Cólmales de paz y gozo con tu mano divinal.</p></div><div class='strophe'> <span class='strophe__number'>3</span> <p>Tú, Jesús, que el trabajo con José lo hiciste bien,</p><p>Haz que fieles te sigamos con paciencia y humildad;</p><p>Que la vida hogareña muestre siempre tu bondad,</p><p>Que las madres sean ejemplo de constancia</p><p>y fe también.</p></div><div class='strophe'> <span class='strophe__number'>4</span> <p>Tú, oh Cristo, que buscaste a las almas con amor,</p><p>Tú, que a todos atrajiste con ternura y compasión,</p><p>Haz que sea nuestra vida un canal de bendición;</p><p>Que las madres traigan gloria a tu nombre,</p><p>oh Señor.</p></div>"
      },
      {
        "current": "app/assets/database/603-623.json",
        "number": 607,
        "author": "Cristóbal E. Morales",
        "year": "1947",
        "title": "A mi madre",
        "verse": "Muchas mujeres hicieron el bien; mas tú sobrepasas a todas. Proverbios 31:29",
        "lyric": "<div class='strophe'> <span class='strophe__number'>1</span> <p>A mi madre tan querida</p><p>yo jamás podré olvidar</p><p>Mientras dure aquí mi vida,</p><p>mientras mi alma pueda amar.</p></div><div class='chorus'> <span class='chorus__title'>Coro</span> <p>A mi madre tan querida,</p><p>la honraré toda la vida;</p><p>Su bondad fue sin medida;</p><p>gracias, Dios, por su amor.</p></div><div class='strophe'> <span class='strophe__number'>2</span> <p>La bendita madre mía</p><p>en la infancia me instruyó;</p><p>Ella fue luz y alegría que mis penas mitigó.</p></div><div class='chorus'> <span class='chorus__title'>Coro</span> <p>A mi madre tan querida,</p><p>la honraré toda la vida;</p><p>Su bondad fue sin medida;</p><p>gracias, Dios, por su amor.</p></div><div class='strophe'> <span class='strophe__number'>3</span> <p>Su mirada de ternura,</p><p>bello obsequio del Señor,</p><p>Su cariño y dulzura, los recuerdo con amor.</p></div><div class='chorus'> <span class='chorus__title'>Coro</span> <p>A mi madre tan querida,</p><p>la honraré toda la vida;</p><p>Su bondad fue sin medida;</p><p>gracias, Dios, por su amor.</p></div>"
      },
      {
        "current": "app/assets/database/603-623.json",
        "number": 608,
        "author": "Raúl Echeverría M.",
        "year": "1946",
        "title": "Un año más",
        "verse": "Tú coronas el año con tus bienes. Salmo 65:11",
        "lyric": "<div class='strophe'> <span class='strophe__number'>1</span> <p>¡Un año más nos da el Salvador,</p><p>un año más de gracia y amor,</p><p>Para servirle de corazón,</p><p>para servir a Cristo!</p></div><div class='chorus'> <span class='chorus__title'>Coro</span> <p>Quiero servir a mi Jesús,</p><p>Quiero esparcir doquier su luz;</p><p>Quiero anunciar su amor y su cruz.</p><p>¡Quiero servir a Cristo!</p></div><div class='strophe'> <span class='strophe__number'>2</span> <p>Un año más; yo quiero ser fiel,</p><p>y dar mi vida sólo por él.</p><p>¡Qué privilegio es vivir así,</p><p>para servir a Cristo!</p></div><div class='chorus'> <span class='chorus__title'>Coro</span> <p>Quiero servir a mi Jesús,</p><p>Quiero esparcir doquier su luz;</p><p>Quiero anunciar su amor y su cruz.</p><p>¡Quiero servir a Cristo!</p></div><div class='strophe'> <span class='strophe__number'>3</span> <p>Un año más, ¡qué dicha será!</p><p>tal vez muy pronto Cristo vendrá.</p><p>¡Qué poco tiempo nos queda ya</p><p>para servir a Cristo!</p></div><div class='chorus'> <span class='chorus__title'>Coro</span> <p>Quiero servir a mi Jesús,</p><p>Quiero esparcir doquier su luz;</p><p>Quiero anunciar su amor y su cruz.</p><p>¡Quiero servir a Cristo!</p></div>"
      },
      {
        "current": "app/assets/database/603-623.json",
        "number": 609,
        "author": "",
        "year": "",
        "title": "Dad a Dios inmortal alabanza",
        "verse": "",
        "lyric": "<div class='strophe'> <span class='strophe__number'>1</span> <p>Dad a Dios inmortal alabanza, su merced,</p><p>su verdad nos inunda;</p><p>Es su gracia en prodigios fecunda,</p><p>sus mercedes, humildes, cantad.</p><p>¡Al Señor de señores</p><p>dad gloria, Rey de reyes, poder sin segundo!</p><p>Morirán los señores del mundo,</p><p>mas su reino no acaba jamás.</p></div><div class='strophe'> <span class='strophe__number'>2</span> <p>Vio los pueblos en vicios sumidos</p><p>y sintió compasión en su seno; De prodigios de gracia</p><p>está lleno, sus mercedes, humildes, cantad.</p><p>A su pueblo llevó por la mano</p><p>a la tierra por él prometida.</p><p>Por los siglos sin fin le da vida;</p><p>y el pecado y la muerte caerán.</p></div><div class='strophe'> <span class='strophe__number'>3</span> <p>A su Hijo envió por salvarnos</p><p>del pecado y la muerte eterna;</p><p>De prodigios de gracia es torrente, sus mercedes,</p><p>humildes, cantad. Por el mundo su mano nos lleva</p><p>y al celeste descanso nos guía; Su bondad vivirá eterno día,</p><p>cuando el mundo no exista ya más.</p></div>"
      },
      {
        "current": "app/assets/database/603-623.json",
        "number": 610,
        "author": "Frances R. Havergal",
        "year": "1874,",
        "title": "Principia un año nuevo",
        "verse": "Ninguna palabra de todas sus promesas...ha faltado. 1 Reyes 8:56",
        "lyric": "<div class='strophe'> <span class='strophe__number'>1</span> <p>Principia un año nuevo; que sea, oh Señor,</p><p>Un año en que nos muestres de nuevo tu amor;</p><p>Un año de progreso y de prosperidad,</p><p>Un año en que gocemos tu gran fidelidad.</p></div><div class='strophe'> <span class='strophe__number'>2</span> <p>Principia un año nuevo; en ti hemos de confiar;</p><p>Seguros en tu mano podemos descansar.</p><p>Tu gran misericordia, tu gracia y bondad</p><p>En este nuevo año queremos disfrutar.</p></div><div class='strophe'> <span class='strophe__number'>3</span> <p>Principia un año nuevo; ayúdanos, oh Dios,</p><p>A ser más consagrados, más prestos a tu voz;</p><p>Y sea allá contigo, o en la tierra aquí,</p><p>Que todo lo que hagamos te glorifique a tí.</p><p>Amén.</p></div>"
      },
      {
        "current": "app/assets/database/603-623.json",
        "number": 611,
        "author": "Arturo Borja Anderson",
        "year": "1940",
        "title": "Con alegres corazones",
        "verse": "El corazón alegre constituye buen remedio. Proverbios 17:22",
        "lyric": "<div class='strophe'> <span class='strophe__number'>1</span> <p>Con alegres corazones alabamos al Señor;</p><p>Celebrando tu cumpleaños, hoy cantamos con fervor;</p><p>Te deseamos muchos años de completa bendición;</p><p>Que tu vida sea en Cristo, tu delicia y tu porción.</p></div><div class='chorus'> <span class='chorus__title'>Coro</span> <p>Cantad, cantad, (sí, cantad,) felicidad (sí, cantad,)</p><p>deseamos hoy de corazón; su nombre alabad, (alabad,)</p><p>Su nombre alabad, (alabad,) que Dios te dé su protección.</p><p>El buen Pastor (el Pastor) te guiará (te guiará)</p><p>en sendas de paz y amor; pues que contigo Cristo</p><p>siempre está, ¡cantad, cantad, cantad!</p></div><div class='strophe'> <span class='strophe__number'>2</span> <p>El Señor te dio la vida; con su imagen te dotó,</p><p>Para gloria de su nombre, ricos dones te legó.</p><p>Dios que vela tus pisadas y a tu lado siempre va,</p><p>Por su gracia te sustenta con el célico maná.</p></div><div class='chorus'> <span class='chorus__title'>Coro</span> <p>Cantad, cantad, (sí, cantad,) felicidad (sí, cantad,)</p><p>deseamos hoy de corazón; su nombre alabad, (alabad,)</p><p>Su nombre alabad, (alabad,) que Dios te dé su protección.</p><p>El buen Pastor (el Pastor) te guiará (te guiará)</p><p>en sendas de paz y amor; pues que contigo Cristo</p><p>siempre está, ¡cantad, cantad, cantad!</p></div>"
      },
      {
        "current": "app/assets/database/603-623.json",
        "number": 612,
        "author": "Eliza E. Hewitt",
        "year": "",
        "title": "Feliz, feliz cumpleaños",
        "verse": "Enséñanos... a contar nuestros días, que traigamos al corazón sabiduría. Salmo 90:12",
        "lyric": "<div class='strophe'> <span class='strophe__number'>1</span> <p>Feliz, feliz cumpleaños deseamos para ti;</p><p>Que el Dios omnipotente te quiera bendecir.</p></div><div class='chorus'> <span class='chorus__title'>Coro</span> <p>¡Feliz, feliz cumpleaños! Que Dios en su bondad</p><p>Te dé muy larga vida, salud, felicidad.</p></div><div class='strophe'> <span class='strophe__number'>2</span> <p>A Dios le damos gracias que con amor sin par,</p><p>Al fin de otro año hermoso te permitió llegar.</p></div><div class='chorus'> <span class='chorus__title'>Coro</span> <p>¡Feliz, feliz cumpleaños! Que Dios en su bondad</p><p>Te dé muy larga vida, salud, felicidad.</p></div><div class='strophe'> <span class='strophe__number'>3</span> <p>Oremos pues, unidos, que te bendiga aún más,</p><p>Te colme en lo futuro de bien, prosperidad.</p></div><div class='chorus'> <span class='chorus__title'>Coro</span> <p>¡Feliz, feliz cumpleaños! Que Dios en su bondad</p><p>Te dé muy larga vida, salud, felicidad.</p></div>"
      },
      {
        "current": "app/assets/database/603-623.json",
        "number": 613,
        "author": "Juan M. Isáis",
        "year": "1956",
        "title": "Nuestra Patria",
        "verse": "Y sucederá que todo aquel que invocare el nombre del Señor será salvo. Joel 2:32",
        "lyric": "<div class='strophe'> <p>Nuestra patria será para Cristo,</p><p>si unidos luchamos por él;</p><p>Una tierra que honre al Bendito</p><p>y que muestre de Dios el poder.</p><p>A luchar, pues, con santo entusiasmo;</p><p>prediquemos de Cristo doquier.</p></div><div class='strophe'> <p>¡Oh Cristianos, luchad! Vuestra patria salvad,</p><p>que Jesús pronto vendrá. ¡Oh Cristianos, luchad!</p><p>Vuestra patria salvad, que Jesús pronto vendrá.</p></div>"
      },
      {
        "current": "app/assets/database/603-623.json",
        "number": 614,
        "author": "Alfredo Colom M.",
        "year": "1956",
        "title": "América será para Cristo",
        "verse": "He aquí una gran multitud... de todas naciones, y tribus... y lenguas. Apocalipsis 7:9",
        "lyric": "<div class='strophe'> <span class='strophe__number'>1</span> <p>América será para Cristo,</p><p>el único camino hacia Dios;</p><p>Verá lo que sus ojos no han visto,</p><p>con sólo caminar de él en pos.</p><p>América será para el cielo, el cielo que Jesús preparó,</p><p>El día que tras rápido vuelo, al lado de Jehová se sentó.</p></div><div class='strophe'> <span class='strophe__number'>2</span> <p>Despierta, pues, América amada;</p><p>alístate en las filas de Dios;</p><p>Escucha del Señor la llamada,</p><p>pues es tan cariñosa su voz.</p><p>Llamando está a tu puerta el Cordero</p><p>que derramó su sangre en la cruz;</p><p>Que sea el Nuevo Mundo el primero,</p><p>en ir a las mansiones de luz.</p></div><div class='strophe'> <span class='strophe__number'>3</span> <p>Colombia, Panamá y Venezuela,</p><p>Bolivia, Paraguay, Ecuador,</p><p>Tendrán la paz de Dios que consuela,</p><p>la paz que nos dejó el Redentor.</p><p>Y Chile, el Perú, la Argentina,</p><p>y Cuba, Uruguay y el Brasil,</p><p>Y el grupo de las islas marinas,</p><p>tendrán sus bendiciones a mil.</p></div><div class='strophe'> <span class='strophe__number'>4</span> <p>Los pueblos que han estado dormidos</p><p>sabrán que Dios les ama en verdad:</p><p>Jamaica, los Estados Unidos,</p><p>y México y también Canadá.</p><p>Los pueblos que componen el Istmo,</p><p>y todos los del sur lo sabrán;</p><p>Sin Cristo nunca habrá cristianismo;</p><p>sin Cristo sólo reina Satán.</p></div><div class='strophe'> <span class='strophe__number'>5</span> <p>La bella Guatemala y Honduras,</p><p>la hermosa Nicaragua, también,</p><p>Tendrán en las edades futuras</p><p>la vida y la salud del Edén.</p><p>Y Dios bendecirá a Costa Rica;</p><p>y Dios bendecirá a El Salvador,</p><p>Naciones que, aunque sean tan chicas,</p><p>son grandes a la faz del Señor.</p></div>"
      },
      {
        "current": "app/assets/database/603-623.json",
        "number": 615,
        "author": "",
        "year": "",
        "title": "Oración por la patria",
        "verse": "",
        "lyric": "<div class='strophe'> <span class='strophe__number'>1</span> <p>Te damos gracias, Dios,</p><p>por nuestra amada patria</p><p>Que alumbras con tu sol y</p><p>con tus mares bañas. La luz primera</p><p>aquí pudimos contemplar;</p><p>Que en ella brille al fin la luz de tu verdad.</p></div><div class='strophe'> <span class='strophe__number'>2</span> <p>Oh Padre Celestial, bendice a nuestra patria;</p><p>Concédele tu paz, otórgale tu gracia;</p><p>Que pueda prosperar en rectitud y bien,</p><p>Y a Cristo proclamar por Salvador y Rey.</p></div>"
      },
      {
        "current": "app/assets/database/603-623.json",
        "number": 616,
        "author": "Isaac Watts",
        "year": "1719",
        "title": "A Dios, naciones, dad loor",
        "verse": "Alabadle, bendecid su nombre. Salmo 100:4",
        "lyric": "<div class='strophe'> <span class='strophe__number'>1</span> <p>A Dios, naciones, dad loor,</p><p>porque es el único Señor;</p><p>A él con gozo alabad,</p><p>y sus bondades celebrad.</p></div><div class='strophe'> <span class='strophe__number'>2</span> <p>Es infinito su poder;</p><p>en él tenemos nuestro ser,</p><p>Pues que del polvo nos formó,</p><p>y de la muerte nos salvó.</p></div><div class='strophe'> <span class='strophe__number'>3</span> <p>Universal es tu bondad;</p><p>será eterna tu verdad;</p><p>Inagotable es tu amor,</p><p>¡Omnipotente Dios, Señor!</p></div>"
      },
      {
        "current": "app/assets/database/603-623.json",
        "number": 617,
        "author": "Juan Bautista Cabrera",
        "year": "",
        "title": "Supremo Dios",
        "verse": "Bienaventurada la nación cuyo Dios es el Señor. Salmo 33:12",
        "lyric": "<div class='strophe'> <span class='strophe__number'>1</span> <p>Supremo Dios, te ruego por mi patria;</p><p>Gobierna con tu mano de justicia.</p><p>Seas honrado y glorificado</p><p>En toda la nación.</p></div><div class='strophe'> <span class='strophe__number'>2</span> <p>Hincha los ríos, fecundiza el campo,</p><p>Llena las huertas, el taller visita;</p><p>Y a todo hombre dale de tus bienes</p><p>Lo que es menester.</p></div><div class='strophe'> <span class='strophe__number'>3</span> <p>Para tu reino sea nuestra patria;</p><p>Tu voluntad la ley que veneremos;</p><p>La cruz de Cristo la gloriosa enseña</p><p>Que tremolemos.</p></div><div class='strophe'> <span class='strophe__number'>4</span> <p>Sobre la tierra que por patria amada</p><p>Te plugo darnos, libertades brillen.</p><p>Y no consientas que se forjen nunca</p><p>Yugos de esclavitud.</p></div><div class='strophe'> <span class='strophe__number'>5</span> <p>Caigan las aras de mentidos dioses</p><p>Que al hombre vana salvación le brindan.</p><p>Sé tú el Dios nuestro, y el debido culto</p><p>Todos te rindan hoy.</p></div>"
      },
      {
        "current": "app/assets/database/603-623.json",
        "number": 618,
        "author": "",
        "year": "",
        "title": "En toda la nación",
        "verse": "1 Timoteo 2:1-4 (BLA)",
        "lyric": "<div class='strophe'> <p>Exhorto, pues, ante todo que se haganrogativas, oraciones, peticiones y accionesde gracias por todos los hombres;...</p></div><div class='chorus'> <p>Por todos los que están en autoridad,para que podamos vivir una vida tranquilay sosegada con toda piedad y dignidad.</p></div><div class='strophe'> <p>Porque esto es bueno y agradable delantede Dios nuestro Salvador,</p></div><div class='chorus'> <p>El cual quiere que todos los hombres sean salvos yvengan al pleno conocimiento de la verdad.</p></div>"
      },
      {
        "current": "app/assets/database/603-623.json",
        "number": 619,
        "author": "",
        "year": "",
        "title": "Alabad a Jehová",
        "verse": "Alabad a Jehová, naciones todas; pueblos todos, alabadle. Salmo 117:1",
        "lyric": "<div class='strophe'> <p>Alabad a Jehová,</p><p>naciones todas;</p><p>pueblos todos, alabadle.</p><p>Porque ha engrandecido</p><p>sobre nosotros su misericordia,</p><p>Y la verdad de Jehová</p><p>es para siempre, ¡Aleluya, amén!</p><p>Y la verdad de Jehová</p><p>es para siempre, ¡Aleluya, amén!</p></div>"
      },
      {
        "current": "app/assets/database/603-623.json",
        "number": 620,
        "author": "Jeremiah E. Rankin",
        "year": "1880",
        "title": "Dios os guarde",
        "verse": "Jehová...bajo cuyas alas has venido a refugiarte. Rut 2:12",
        "lyric": "<div class='strophe'> <span class='strophe__number'>1</span> <p>Dios os guarde siempre en santo amor;</p><p>hasta el día en que lleguemos</p><p>a la patria do estaremos</p><p>para siempre con el Salvador.</p></div><div class='chorus'> <span class='chorus__title'>Coro</span> <p>Al venir Jesús nos veremos,</p><p>a los pies de nuestro Salvador; Reunidos todos, seremos</p><p>un redil con nuestro buen Pastor.</p></div><div class='strophe'> <span class='strophe__number'>2</span> <p>Dios os guarde siempre en santo amor;</p><p>en la senda peligrosa</p><p>de esta vida tormentosa,</p><p>os conserve en paz y sin temor.</p></div><div class='chorus'> <span class='chorus__title'>Coro</span> <p>Al venir Jesús nos veremos,</p><p>a los pies de nuestro Salvador; Reunidos todos, seremos</p><p>un redil con nuestro buen Pastor.</p></div><div class='strophe'> <span class='strophe__number'>3</span> <p>Dios os guarde siempre en santo amor;</p><p>os conduzca su bandera,</p><p>y os esfuerce en gran manera</p><p>con su Espíritu Consolador.</p></div><div class='chorus'> <span class='chorus__title'>Coro</span> <p>Al venir Jesús nos veremos,</p><p>a los pies de nuestro Salvador; Reunidos todos, seremos</p><p>un redil con nuestro buen Pastor.</p></div><div class='strophe'> <span class='strophe__number'>4</span> <p>Dios os guarde siempre en santo amor;</p><p>con su gracia os sostenga,</p><p>hasta que el Maestro venga</p><p>a fundar su reino en esplendor.</p></div><div class='chorus'> <span class='chorus__title'>Coro</span> <p>Al venir Jesús nos veremos,</p><p>a los pies de nuestro Salvador; Reunidos todos, seremos</p><p>un redil con nuestro buen Pastor.</p></div>"
      },
      {
        "current": "app/assets/database/603-623.json",
        "number": 621,
        "author": "David Brambila B.",
        "year": "1991",
        "title": "Gracias, Dios",
        "verse": "Acordaos de vuestros pastores...considerad...su conducta, e imitad su fe. Hebreos 13:7",
        "lyric": "<div class='strophe'> <span class='strophe__number'>1</span> <p>Gracias, Dios, por los pastores*,</p><p>fieles siervos tuyos son;</p><p>Y con gran visión y amor,</p><p>siempre luchan con fervor.</p><p>Gracias, Dios, por los pastores*, ¡Gracias, Dios!</p></div><div class='strophe'> <span class='strophe__number'>2</span> <p>Gracias, Dios, por los pastores*,</p><p>por su ejemplo y su fe;</p><p>Instrumentos son del Rey,</p><p>siempre velan por la grey.</p><p>Gracias, Dios, por los pastores*, ¡Gracias, Dios!</p></div>"
      },
      {
        "current": "app/assets/database/603-623.json",
        "number": 622,
        "author": "Ana María Sywulka de Dahlquist",
        "year": "1959",
        "title": "Gratitud por el pastor",
        "verse": "",
        "lyric": "<div class='strophe'> <span class='strophe__number'>1</span> <p>Hoy damos gracias al Señor por ti,</p><p>Pues él te hizo fiel y buen pastor</p><p>Que a sus ovejas sabe conducir</p><p>Por los caminos de su Salvador.</p></div><div class='strophe'> <span class='strophe__number'>2</span> <p>Hoy damos gracias al Señor por ti,</p><p>Pues él te hizo sabio sembrador</p><p>Que la Palabra sale a esparcir;</p><p>Dios fruto te dará por tu labor.</p></div><div class='strophe'> <span class='strophe__number'>3</span> <p>Hoy damos gracias al Señor por ti,</p><p>Pues él te hizo edificador;</p><p>Con piedras vivas sabes construir</p><p>La casa que da gloria al Redentor.</p></div>"
      },
      {
        "current": "app/assets/database/603-623.json",
        "number": 623,
        "author": "Isabel G. V. de Rodríguez",
        "year": "",
        "title": "Este templo dedicamos",
        "verse": "Y así dedicaron la casa de Dios el rey y todo el pueblo. 2 Crónicas 7:5",
        "lyric": "<div class='strophe'> <span class='strophe__number'>1</span> <p>Este templo* dedicamos a tu gloria, oh Señor,</p><p>Para el culto de tus hijos que te sirven con amor.</p><p>De las manos es hechura, expresión de nuestra fe;</p><p>Es tributo que te ofrendan los creyentes, Padre fiel.</p></div><div class='strophe'> <span class='strophe__number'>2</span> <p>Por tu gracia, Dios eterno, gran artífice y Señor,</p><p>Esta ofrenda hoy bendice con tu Espíritu de amor.</p><p>Este templo* dedicamos a tu gloria, oh Señor,</p><p>Para el culto de tus hijos que te sirven con amor.</p></div>"
      }
    ]
  }
]
